\relax 
\providecommand\hyper@newdestlabel[2]{}
\providecommand\HyperFirstAtBeginDocument{\AtBeginDocument}
\HyperFirstAtBeginDocument{\ifx\hyper@anchor\@undefined
\global\let\oldcontentsline\contentsline
\gdef\contentsline#1#2#3#4{\oldcontentsline{#1}{#2}{#3}}
\global\let\oldnewlabel\newlabel
\gdef\newlabel#1#2{\newlabelxx{#1}#2}
\gdef\newlabelxx#1#2#3#4#5#6{\oldnewlabel{#1}{{#2}{#3}}}
\AtEndDocument{\ifx\hyper@anchor\@undefined
\let\contentsline\oldcontentsline
\let\newlabel\oldnewlabel
\fi}
\fi}
\global\let\hyper@last\relax 
\gdef\HyperFirstAtBeginDocument#1{#1}
\providecommand\HyField@AuxAddToFields[1]{}
\providecommand\HyField@AuxAddToCoFields[2]{}
\providecommand \oddpage@label [2]{}
\@writefile{toc}{\contentsline {chapter}{\numberline {1}Hierarchical Index}{1}{chapter.1}}
\@writefile{lof}{\addvspace {10\p@ }}
\@writefile{lot}{\addvspace {10\p@ }}
\@writefile{toc}{\contentsline {section}{\numberline {1.1}Class Hierarchy}{1}{section.1.1}}
\@writefile{toc}{\contentsline {chapter}{\numberline {2}Class Index}{3}{chapter.2}}
\@writefile{lof}{\addvspace {10\p@ }}
\@writefile{lot}{\addvspace {10\p@ }}
\@writefile{toc}{\contentsline {section}{\numberline {2.1}Class List}{3}{section.2.1}}
\@writefile{toc}{\contentsline {chapter}{\numberline {3}Class Documentation}{5}{chapter.3}}
\@writefile{lof}{\addvspace {10\p@ }}
\@writefile{lot}{\addvspace {10\p@ }}
\@writefile{toc}{\contentsline {section}{\numberline {3.1}Activate\discretionary {\unhbox \voidb@x \hbox {\relax \fontsize  {7}{8}\selectfont  $\leftarrow \joinrel  \rhook $}}{}{}Key\discretionary {\unhbox \voidb@x \hbox {\relax \fontsize  {7}{8}\selectfont  $\leftarrow \joinrel  \rhook $}}{}{}Packet Class Reference}{5}{section.3.1}}
\newlabel{class_activate_key_packet}{{3.1}{5}{Activate\+Key\+Packet Class Reference}{section.3.1}{}}
\@writefile{toc}{\contentsline {section}{\numberline {3.2}Base\discretionary {\unhbox \voidb@x \hbox {\relax \fontsize  {7}{8}\selectfont  $\leftarrow \joinrel  \rhook $}}{}{}Crypto Class Reference}{5}{section.3.2}}
\newlabel{class_base_crypto}{{3.2}{5}{Base\+Crypto Class Reference}{section.3.2}{}}
\newlabel{class_base_crypto_aef524f84b1f71b950396f68c09093c28}{{3.2}{6}{Static Public Member Functions}{section*.5}{}}
\@writefile{toc}{\contentsline {section}{\numberline {3.3}Base\discretionary {\unhbox \voidb@x \hbox {\relax \fontsize  {7}{8}\selectfont  $\leftarrow \joinrel  \rhook $}}{}{}Packet Class Reference}{6}{section.3.3}}
\newlabel{class_base_packet}{{3.3}{6}{Base\+Packet Class Reference}{section.3.3}{}}
\newlabel{class_base_packet_afea2cdbf203f24f518dc4cfa0d33e766}{{3.3}{6}{Public Member Functions}{section*.7}{}}
\newlabel{class_base_packet_adf8cdc6e3bb385b990eac582303526c1}{{3.3}{6}{Public Member Functions}{section*.7}{}}
\newlabel{class_base_packet_a928823a3221e0455751257ad4a3f2395}{{3.3}{6}{Public Member Functions}{section*.7}{}}
\newlabel{class_base_packet_aa3d3bb4c4b6f1ce09b171739273bb56d}{{3.3}{6}{Public Member Functions}{section*.7}{}}
\@writefile{toc}{\contentsline {section}{\numberline {3.4}Base\discretionary {\unhbox \voidb@x \hbox {\relax \fontsize  {7}{8}\selectfont  $\leftarrow \joinrel  \rhook $}}{}{}Protocol Class Reference}{7}{section.3.4}}
\newlabel{class_base_protocol}{{3.4}{7}{Base\+Protocol Class Reference}{section.3.4}{}}
\newlabel{class_base_protocol_aef417c8132a74d0ef84e60f40785026b}{{3.4}{7}{Public Member Functions}{section*.10}{}}
\newlabel{class_base_protocol_a04ae119ab2b30810d6f553b8fb5ee8ab}{{3.4}{7}{Public Member Functions}{section*.10}{}}
\newlabel{class_base_protocol_a01232960bc4193170f3b0f46a070e2d8}{{3.4}{7}{Public Member Functions}{section*.10}{}}
\newlabel{class_base_protocol_ae3adf0496945a2433e832016b0057cbc}{{3.4}{7}{Public Member Functions}{section*.10}{}}
\newlabel{class_base_protocol_a4f2cd7ddc46bf3d4f125b7fb2b423031}{{3.4}{7}{Public Member Functions}{section*.10}{}}
\newlabel{class_base_protocol_ada2fa096a186f71b3bd87bb43c7acc22}{{3.4}{7}{Public Member Functions}{section*.10}{}}
\newlabel{class_base_protocol_aa2d70b3a1f16325222a3075147c86ef1}{{3.4}{7}{Public Member Functions}{section*.10}{}}
\newlabel{class_base_protocol_abca178572bb2695f099b634817a07e30}{{3.4}{7}{Public Member Functions}{section*.10}{}}
\newlabel{class_base_protocol_abc4ec74bbbed5e9af6a1e32589210225}{{3.4}{7}{Public Member Functions}{section*.10}{}}
\newlabel{class_base_protocol_a2d9fcbc2be0a587336c40490aa804e23}{{3.4}{7}{Public Member Functions}{section*.10}{}}
\newlabel{class_base_protocol_a2434750ec7ee308b213ad8e9ecbacb7b}{{3.4}{7}{Public Member Functions}{section*.10}{}}
\newlabel{class_base_protocol_a1cd5740f9968500a80031e37fce36e7d}{{3.4}{7}{Public Member Functions}{section*.10}{}}
\newlabel{class_base_protocol_a4fb084e6ef5a061b246a890f77554e00}{{3.4}{7}{Public Member Functions}{section*.10}{}}
\newlabel{class_base_protocol_abe0ab7f030798716b93e9d72a618c2fd}{{3.4}{7}{Public Member Functions}{section*.10}{}}
\newlabel{class_base_protocol_a9f50a17ccc29ba2e5f9a54eeeb7a5bfd}{{3.4}{7}{Public Member Functions}{section*.10}{}}
\newlabel{class_base_protocol_af38e48ab1c5800a706c28e694089a69f}{{3.4}{7}{Public Member Functions}{section*.10}{}}
\newlabel{class_base_protocol_a1af79f8b40f955036ace0cea81adc0de}{{3.4}{7}{Public Member Functions}{section*.10}{}}
\newlabel{class_base_protocol_a47cbda27540ef360ea76c3586324ec86}{{3.4}{7}{Public Member Functions}{section*.10}{}}
\newlabel{class_base_protocol_ae617193b9277a4a836f3f406e2ce92a3}{{3.4}{7}{Public Member Functions}{section*.10}{}}
\newlabel{class_base_protocol_a77e9b297b515397278553e16dddf9f13}{{3.4}{7}{Public Member Functions}{section*.10}{}}
\newlabel{class_base_protocol_a9e35d2aca84e0828d45c520eb15f7684}{{3.4}{7}{Public Member Functions}{section*.10}{}}
\newlabel{class_base_protocol_a764341dea9582d6d040d1b5e7b7a0ac8}{{3.4}{7}{Public Member Functions}{section*.10}{}}
\newlabel{class_base_protocol_ab9134b61ef6e4f1d863691964299551d}{{3.4}{7}{Public Member Functions}{section*.10}{}}
\newlabel{class_base_protocol_a05fce1fe039a669baecd929c0eb05f1c}{{3.4}{7}{Public Member Functions}{section*.10}{}}
\newlabel{class_base_protocol_aeb91d392ce49358dd00cf94e42a06225}{{3.4}{7}{Public Member Functions}{section*.10}{}}
\newlabel{class_base_protocol_accc73715a8f62dde2e7344923db31db2}{{3.4}{7}{Public Member Functions}{section*.10}{}}
\newlabel{class_base_protocol_a88ace9b4a7cce0b69490c4942b16049f}{{3.4}{7}{Public Member Functions}{section*.10}{}}
\newlabel{class_base_protocol_a11edb42f0c56115d612b899fe42619a1}{{3.4}{7}{Public Attributes}{section*.11}{}}
\@writefile{toc}{\contentsline {section}{\numberline {3.5}Basic\discretionary {\unhbox \voidb@x \hbox {\relax \fontsize  {7}{8}\selectfont  $\leftarrow \joinrel  \rhook $}}{}{}Centeralized\discretionary {\unhbox \voidb@x \hbox {\relax \fontsize  {7}{8}\selectfont  $\leftarrow \joinrel  \rhook $}}{}{}Protocol\discretionary {\unhbox \voidb@x \hbox {\relax \fontsize  {7}{8}\selectfont  $\leftarrow \joinrel  \rhook $}}{}{}Master Class Reference}{8}{section.3.5}}
\newlabel{class_basic_centeralized_protocol_master}{{3.5}{8}{Basic\+Centeralized\+Protocol\+Master Class Reference}{section.3.5}{}}
\newlabel{class_basic_centeralized_protocol_master_a8f4dab92a0765cfa36bdb96fc76808df}{{3.5}{8}{Public Member Functions}{section*.13}{}}
\newlabel{class_basic_centeralized_protocol_master_a72085545cb45d4d7dd6d5ad3428a90ac}{{3.5}{8}{Public Member Functions}{section*.13}{}}
\@writefile{toc}{\contentsline {section}{\numberline {3.6}Basic\discretionary {\unhbox \voidb@x \hbox {\relax \fontsize  {7}{8}\selectfont  $\leftarrow \joinrel  \rhook $}}{}{}Centeralized\discretionary {\unhbox \voidb@x \hbox {\relax \fontsize  {7}{8}\selectfont  $\leftarrow \joinrel  \rhook $}}{}{}Protocol\discretionary {\unhbox \voidb@x \hbox {\relax \fontsize  {7}{8}\selectfont  $\leftarrow \joinrel  \rhook $}}{}{}Node Class Reference}{8}{section.3.6}}
\newlabel{class_basic_centeralized_protocol_node}{{3.6}{8}{Basic\+Centeralized\+Protocol\+Node Class Reference}{section.3.6}{}}
\newlabel{class_basic_centeralized_protocol_node_a74d114f758183ff49cdb7a90476e2d41}{{3.6}{8}{Public Member Functions}{section*.16}{}}
\newlabel{class_basic_centeralized_protocol_node_a80d36f78d6c41f5e680fecc8554cab9e}{{3.6}{8}{Public Member Functions}{section*.16}{}}
\newlabel{class_basic_centeralized_protocol_node_a98ac7146304d4ef0e7c5a295e8f4f333}{{3.6}{8}{Public Member Functions}{section*.16}{}}
\@writefile{toc}{\contentsline {section}{\numberline {3.7}Basic\discretionary {\unhbox \voidb@x \hbox {\relax \fontsize  {7}{8}\selectfont  $\leftarrow \joinrel  \rhook $}}{}{}Distributed\discretionary {\unhbox \voidb@x \hbox {\relax \fontsize  {7}{8}\selectfont  $\leftarrow \joinrel  \rhook $}}{}{}Protocol\discretionary {\unhbox \voidb@x \hbox {\relax \fontsize  {7}{8}\selectfont  $\leftarrow \joinrel  \rhook $}}{}{}Node Class Reference}{9}{section.3.7}}
\newlabel{class_basic_distributed_protocol_node}{{3.7}{9}{Basic\+Distributed\+Protocol\+Node Class Reference}{section.3.7}{}}
\newlabel{class_basic_distributed_protocol_node_a3f58496ec4b0bb2779206dfecd75d376}{{3.7}{9}{Public Member Functions}{section*.19}{}}
\@writefile{toc}{\contentsline {section}{\numberline {3.8}Bus Class Reference}{9}{section.3.8}}
\newlabel{class_bus}{{3.8}{9}{Bus Class Reference}{section.3.8}{}}
\newlabel{class_bus_a8118c47676ba071c16b2629118a949cb}{{3.8}{10}{Public Member Functions}{section*.22}{}}
\newlabel{class_bus_af4d30e0288a43e94acf156234eb1498d}{{3.8}{10}{Public Member Functions}{section*.22}{}}
\newlabel{class_bus_a2d8522551041551eb94fa232528bd898}{{3.8}{10}{Public Member Functions}{section*.22}{}}
\newlabel{class_bus_a544ac77f9a2851869199500cd97e8bf4}{{3.8}{10}{Public Member Functions}{section*.22}{}}
\newlabel{class_bus_a49a63fee2b2e07fcca5024f1c78d5282}{{3.8}{10}{Public Member Functions}{section*.22}{}}
\newlabel{class_bus_a57294b4f13f0c09eaf203a77adc5b9b7}{{3.8}{10}{Public Member Functions}{section*.22}{}}
\newlabel{class_bus_a535549d2bde5df9c46bd8aecc266554b}{{3.8}{10}{Public Member Functions}{section*.22}{}}
\newlabel{class_bus_a0fcb3675d667755c075c1a6bf1175546}{{3.8}{10}{Public Member Functions}{section*.22}{}}
\newlabel{class_bus_a238de944b35600647550936507d89cc1}{{3.8}{10}{Public Member Functions}{section*.22}{}}
\newlabel{class_bus_ac22e4c8df3cba5041d153f062f79ba69}{{3.8}{10}{Public Attributes}{section*.23}{}}
\newlabel{class_bus_aa8d809a9742401d19b6f1368247e0674}{{3.8}{10}{Public Attributes}{section*.23}{}}
\newlabel{class_bus_a260170d0bcee49612538e7b3793895c4}{{3.8}{10}{Public Attributes}{section*.23}{}}
\newlabel{class_bus_a97374261c8cd5bc49d940f39604e5525}{{3.8}{10}{Public Attributes}{section*.23}{}}
\newlabel{class_bus_a29ad785e3c70973501e9e64ca0fe34f7}{{3.8}{10}{Public Attributes}{section*.23}{}}
\@writefile{toc}{\contentsline {subsection}{\numberline {3.8.1}Detailed Description}{10}{subsection.3.8.1}}
\@writefile{toc}{\contentsline {subsection}{\numberline {3.8.2}Member Function Documentation}{10}{subsection.3.8.2}}
\newlabel{class_bus_a996096e13247f6844a8404f3581b7d50}{{3.8.2}{10}{Member Function Documentation}{subsection.3.8.2}{}}
\@writefile{toc}{\contentsline {subsubsection}{\numberline {3.8.2.1}operator$<$$<$()}{10}{subsubsection.3.8.2.1}}
\@writefile{toc}{\contentsline {section}{\numberline {3.9}C\discretionary {\unhbox \voidb@x \hbox {\relax \fontsize  {7}{8}\selectfont  $\leftarrow \joinrel  \rhook $}}{}{}A\discretionary {\unhbox \voidb@x \hbox {\relax \fontsize  {7}{8}\selectfont  $\leftarrow \joinrel  \rhook $}}{}{}N\discretionary {\unhbox \voidb@x \hbox {\relax \fontsize  {7}{8}\selectfont  $\leftarrow \joinrel  \rhook $}}{}{}Socket Class Reference}{11}{section.3.9}}
\newlabel{class_c_a_n_socket}{{3.9}{11}{C\+A\+N\+Socket Class Reference}{section.3.9}{}}
\newlabel{class_c_a_n_socket_abcc07ef946c2ea6a9ca6941f4907dc67}{{3.9}{11}{Public Member Functions}{section*.25}{}}
\newlabel{class_c_a_n_socket_a232eea0562211cb08f4dcc35a8b11c99}{{3.9}{11}{Public Member Functions}{section*.25}{}}
\newlabel{class_c_a_n_socket_affa6093ed4c612d01ab4635155ca299e}{{3.9}{11}{Public Member Functions}{section*.25}{}}
\@writefile{toc}{\contentsline {subsection}{\numberline {3.9.1}Detailed Description}{11}{subsection.3.9.1}}
\@writefile{toc}{\contentsline {section}{\numberline {3.10}Centeralized\discretionary {\unhbox \voidb@x \hbox {\relax \fontsize  {7}{8}\selectfont  $\leftarrow \joinrel  \rhook $}}{}{}Protocol Class Reference}{11}{section.3.10}}
\newlabel{class_centeralized_protocol}{{3.10}{11}{Centeralized\+Protocol Class Reference}{section.3.10}{}}
\newlabel{class_centeralized_protocol_aa201b0721fa981949e5edc9d02d897df}{{3.10}{12}{Public Member Functions}{section*.27}{}}
\newlabel{class_centeralized_protocol_a3b603c1a4d37db7df69a7c8f6ed823bb}{{3.10}{12}{Public Member Functions}{section*.27}{}}
\@writefile{toc}{\contentsline {section}{\numberline {3.11}Certificate\discretionary {\unhbox \voidb@x \hbox {\relax \fontsize  {7}{8}\selectfont  $\leftarrow \joinrel  \rhook $}}{}{}Packet Class Reference}{12}{section.3.11}}
\newlabel{class_certificate_packet}{{3.11}{12}{Certificate\+Packet Class Reference}{section.3.11}{}}
\newlabel{class_certificate_packet_a53cc8d1c878b4d3704d4fbf78b404589}{{3.11}{12}{Public Member Functions}{section*.30}{}}
\@writefile{toc}{\contentsline {section}{\numberline {3.12}Certificate\discretionary {\unhbox \voidb@x \hbox {\relax \fontsize  {7}{8}\selectfont  $\leftarrow \joinrel  \rhook $}}{}{}Packet\discretionary {\unhbox \voidb@x \hbox {\relax \fontsize  {7}{8}\selectfont  $\leftarrow \joinrel  \rhook $}}{}{}Data Union Reference}{13}{section.3.12}}
\newlabel{union_certificate_packet_data}{{3.12}{13}{Certificate\+Packet\+Data Union Reference}{section.3.12}{}}
\newlabel{union_certificate_packet_data_a00c6f203d890f35df21b644b00d469db}{{3.12}{13}{Public Attributes}{section*.32}{}}
\newlabel{union_certificate_packet_data_a20ef856f6c1ace3eab0ffb7889b01a15}{{3.12}{13}{Public Attributes}{section*.32}{}}
\newlabel{union_certificate_packet_data_a1f3bb56b79879f073a1c8d32e5fc3469}{{3.12}{13}{Public Attributes}{section*.32}{}}
\@writefile{toc}{\contentsline {section}{\numberline {3.13}Clock Class Reference}{13}{section.3.13}}
\newlabel{class_clock}{{3.13}{13}{Clock Class Reference}{section.3.13}{}}
\@writefile{toc}{\contentsline {subsection}{\numberline {3.13.1}Detailed Description}{13}{subsection.3.13.1}}
\@writefile{toc}{\contentsline {section}{\numberline {3.14}Distributed\discretionary {\unhbox \voidb@x \hbox {\relax \fontsize  {7}{8}\selectfont  $\leftarrow \joinrel  \rhook $}}{}{}Protocol Class Reference}{14}{section.3.14}}
\newlabel{class_distributed_protocol}{{3.14}{14}{Distributed\+Protocol Class Reference}{section.3.14}{}}
\newlabel{class_distributed_protocol_a2ecf5ff95e253aae33b8e486f039a6a4}{{3.14}{14}{Public Member Functions}{section*.35}{}}
\newlabel{class_distributed_protocol_a1ddd9275738b9d790bcea640928ac82d}{{3.14}{14}{Public Member Functions}{section*.35}{}}
\@writefile{toc}{\contentsline {section}{\numberline {3.15}E\discretionary {\unhbox \voidb@x \hbox {\relax \fontsize  {7}{8}\selectfont  $\leftarrow \joinrel  \rhook $}}{}{}CU Class Reference}{14}{section.3.15}}
\newlabel{class_e_c_u}{{3.15}{14}{E\+CU Class Reference}{section.3.15}{}}
\newlabel{class_e_c_u_aab5011082ec9aba853a34a80a757b595}{{3.15}{14}{Public Member Functions}{section*.38}{}}
\newlabel{class_e_c_u_a3a4352765eb0f3cd03085be1817d896f}{{3.15}{14}{Public Member Functions}{section*.38}{}}
\newlabel{class_e_c_u_ab335841daae12ad638fa1e05a1f0c2c6}{{3.15}{14}{Public Member Functions}{section*.38}{}}
\newlabel{class_e_c_u_abed5110003f094028c6220e73ae5d01b}{{3.15}{14}{Public Member Functions}{section*.38}{}}
\newlabel{class_e_c_u_a3a9a79b10b9f30e860f283bdd89e00a6}{{3.15}{14}{Public Member Functions}{section*.38}{}}
\@writefile{toc}{\contentsline {section}{\numberline {3.16}Freshness\discretionary {\unhbox \voidb@x \hbox {\relax \fontsize  {7}{8}\selectfont  $\leftarrow \joinrel  \rhook $}}{}{}Packet Class Reference}{15}{section.3.16}}
\newlabel{class_freshness_packet}{{3.16}{15}{Freshness\+Packet Class Reference}{section.3.16}{}}
\@writefile{toc}{\contentsline {section}{\numberline {3.17}Gateway Class Reference}{15}{section.3.17}}
\newlabel{class_gateway}{{3.17}{15}{Gateway Class Reference}{section.3.17}{}}
\newlabel{class_gateway_a99e60f9511ee5bf2c380995375750379}{{3.17}{15}{Public Member Functions}{section*.41}{}}
\@writefile{toc}{\contentsline {subsection}{\numberline {3.17.1}Detailed Description}{15}{subsection.3.17.1}}
\@writefile{toc}{\contentsline {section}{\numberline {3.18}Interrogate\discretionary {\unhbox \voidb@x \hbox {\relax \fontsize  {7}{8}\selectfont  $\leftarrow \joinrel  \rhook $}}{}{}Packet Class Reference}{16}{section.3.18}}
\newlabel{class_interrogate_packet}{{3.18}{16}{Interrogate\+Packet Class Reference}{section.3.18}{}}
\@writefile{toc}{\contentsline {section}{\numberline {3.19}Join\discretionary {\unhbox \voidb@x \hbox {\relax \fontsize  {7}{8}\selectfont  $\leftarrow \joinrel  \rhook $}}{}{}Ask\discretionary {\unhbox \voidb@x \hbox {\relax \fontsize  {7}{8}\selectfont  $\leftarrow \joinrel  \rhook $}}{}{}Packet Class Reference}{16}{section.3.19}}
\newlabel{class_join_ask_packet}{{3.19}{16}{Join\+Ask\+Packet Class Reference}{section.3.19}{}}
\@writefile{toc}{\contentsline {section}{\numberline {3.20}Key\discretionary {\unhbox \voidb@x \hbox {\relax \fontsize  {7}{8}\selectfont  $\leftarrow \joinrel  \rhook $}}{}{}Packet Class Reference}{16}{section.3.20}}
\newlabel{class_key_packet}{{3.20}{16}{Key\+Packet Class Reference}{section.3.20}{}}
\newlabel{class_key_packet_ab9b5daf59c7c4ca6ee710b4e74db2419}{{3.20}{17}{Public Member Functions}{section*.47}{}}
\newlabel{class_key_packet_a35847edb2419fb2e66f2729f9e038612}{{3.20}{17}{Public Member Functions}{section*.47}{}}
\@writefile{toc}{\contentsline {section}{\numberline {3.21}Metric Struct Reference}{17}{section.3.21}}
\newlabel{struct_metric}{{3.21}{17}{Metric Struct Reference}{section.3.21}{}}
\newlabel{struct_metric_a86839b3b5a2e6abeb1c7b4b57fe21a2f}{{3.21}{17}{Public Attributes}{section*.49}{}}
\newlabel{struct_metric_ad4b7de48e5b3c9fabccc0f9c68dcbb22}{{3.21}{17}{Public Attributes}{section*.49}{}}
\newlabel{struct_metric_a0d220cea448ce250aacc3f0db6525c70}{{3.21}{17}{Public Attributes}{section*.49}{}}
\newlabel{struct_metric_aa253f454ab495b8602b1f5bf244a3399}{{3.21}{17}{Public Attributes}{section*.49}{}}
\newlabel{struct_metric_a3a51327ae10b5ebc62387d1cef3ac6da}{{3.21}{17}{Public Attributes}{section*.49}{}}
\@writefile{toc}{\contentsline {section}{\numberline {3.22}Node Class Reference}{17}{section.3.22}}
\newlabel{class_node}{{3.22}{17}{Node Class Reference}{section.3.22}{}}
\newlabel{class_node_a75302f06060ac69f17e68a1d79e4c1e1}{{3.22}{17}{Public Member Functions}{section*.51}{}}
\newlabel{class_node_a0321ce39fed462b06f2eef586301bdde}{{3.22}{17}{Public Attributes}{section*.52}{}}
\@writefile{toc}{\contentsline {subsection}{\numberline {3.22.1}Detailed Description}{18}{subsection.3.22.1}}
\@writefile{toc}{\contentsline {section}{\numberline {3.23}O\discretionary {\unhbox \voidb@x \hbox {\relax \fontsize  {7}{8}\selectfont  $\leftarrow \joinrel  \rhook $}}{}{}K\discretionary {\unhbox \voidb@x \hbox {\relax \fontsize  {7}{8}\selectfont  $\leftarrow \joinrel  \rhook $}}{}{}Packet Class Reference}{18}{section.3.23}}
\newlabel{class_o_k_packet}{{3.23}{18}{O\+K\+Packet Class Reference}{section.3.23}{}}
\@writefile{toc}{\contentsline {section}{\numberline {3.24}Packet Class Reference}{18}{section.3.24}}
\newlabel{class_packet}{{3.24}{18}{Packet Class Reference}{section.3.24}{}}
\newlabel{class_packet_aae390f7bba3528aee2fbe9c91232b53c}{{3.24}{19}{Public Member Functions}{section*.56}{}}
\newlabel{class_packet_a057192d707d1e6c81137626f0b29c5ed}{{3.24}{19}{Public Member Functions}{section*.56}{}}
\newlabel{class_packet_ab944cf4e450719dcaff4a75238f4b49b}{{3.24}{19}{Public Member Functions}{section*.56}{}}
\newlabel{class_packet_ad2a06ea225dbbe6b46b5c62e7432c829}{{3.24}{19}{Public Member Functions}{section*.56}{}}
\newlabel{class_packet_aebbae2cef32f967d0bbcabbe41dae6bf}{{3.24}{19}{Public Attributes}{section*.57}{}}
\newlabel{class_packet_abc6c0f90c8a705d660beeeaf9a1e973c}{{3.24}{19}{Public Attributes}{section*.57}{}}
\newlabel{class_packet_aca3121ac2a3b91124d32d8665c86737a}{{3.24}{19}{Public Attributes}{section*.57}{}}
\newlabel{class_packet_a1e664d32e0360a31ae5073f488bde53c}{{3.24}{19}{Public Attributes}{section*.57}{}}
\newlabel{class_packet_abb6d100cc6a092b52f31bd0826b7b7ca}{{3.24}{19}{Public Attributes}{section*.57}{}}
\newlabel{class_packet_a0da53e004720d2df0f92aa7ce4f98b40}{{3.24}{19}{Public Attributes}{section*.57}{}}
\newlabel{class_packet_a6cb21783a5498004748ac514be5f822a}{{3.24}{19}{Public Attributes}{section*.57}{}}
\newlabel{class_packet_ab32b6f3bd029fa27fdda3840f5002603}{{3.24}{19}{Public Attributes}{section*.57}{}}
\@writefile{toc}{\contentsline {subsection}{\numberline {3.24.1}Detailed Description}{19}{subsection.3.24.1}}
\@writefile{toc}{\contentsline {section}{\numberline {3.25}Protocol Class Reference}{20}{section.3.25}}
\newlabel{class_protocol}{{3.25}{20}{Protocol Class Reference}{section.3.25}{}}
\newlabel{class_protocol_a6300a939a7534df5fa507bea4f0c983e}{{3.25}{20}{Public Member Functions}{section*.59}{}}
\newlabel{class_protocol_acc2ae1f805d789c306b7f5799d0d2078}{{3.25}{20}{Public Member Functions}{section*.59}{}}
\newlabel{class_protocol_ad837768f6e948f3075b3348fe916b017}{{3.25}{20}{Public Member Functions}{section*.59}{}}
\newlabel{class_protocol_acc236409af0601ac935db5890b73e90f}{{3.25}{20}{Public Member Functions}{section*.59}{}}
\newlabel{class_protocol_a017cb273c239b209b053b351d4db9c17}{{3.25}{20}{Public Member Functions}{section*.59}{}}
\newlabel{class_protocol_a2e4053947f1616ec468db51229b0a118}{{3.25}{20}{Public Member Functions}{section*.59}{}}
\newlabel{class_protocol_ab8e4c508e9939d007b57e29481ab58e3}{{3.25}{20}{Public Member Functions}{section*.59}{}}
\newlabel{class_protocol_a8bcacabcad4b691dcc1bf81037ad605f}{{3.25}{20}{Public Member Functions}{section*.59}{}}
\newlabel{class_protocol_a64f767daa5ff10878040e5155a845ab7}{{3.25}{20}{Public Member Functions}{section*.59}{}}
\newlabel{class_protocol_a94b0cf0071b2900a03b0101015a68e72}{{3.25}{20}{Public Member Functions}{section*.59}{}}
\newlabel{class_protocol_aab2d4658e13a00a48b4fccb43b5b9b0e}{{3.25}{20}{Public Member Functions}{section*.59}{}}
\newlabel{class_protocol_a64544d18c028be1d9d94da3948164678}{{3.25}{20}{Public Member Functions}{section*.59}{}}
\newlabel{class_protocol_ab8430281d1078533730e98b5f9a4251b}{{3.25}{20}{Public Member Functions}{section*.59}{}}
\newlabel{class_protocol_a5d060b24f92b503cc11adb74ba35f1c3}{{3.25}{20}{Public Member Functions}{section*.59}{}}
\newlabel{class_protocol_a71aacdfd76ce0d99269347cf522d44ba}{{3.25}{20}{Public Member Functions}{section*.59}{}}
\newlabel{class_protocol_a3d99dc29c248e96763e361f6b564fd1b}{{3.25}{20}{Public Member Functions}{section*.59}{}}
\newlabel{class_protocol_ab6cceeb0a05fd4ab01de5fdb1e058459}{{3.25}{20}{Public Member Functions}{section*.59}{}}
\newlabel{class_protocol_aa1ed68cab7ed04ded6b426e5b3e90917}{{3.25}{20}{Public Member Functions}{section*.59}{}}
\newlabel{class_protocol_a3b12f87ba37630d98a65c5279eff93b4}{{3.25}{20}{Public Member Functions}{section*.59}{}}
\newlabel{class_protocol_afafb4e2fb689a49ccea8f8566b01af59}{{3.25}{20}{Public Member Functions}{section*.59}{}}
\newlabel{class_protocol_a13c8cb8ac2be3f6041e33624a207a6be}{{3.25}{20}{Public Member Functions}{section*.59}{}}
\newlabel{class_protocol_ab82bfc8f5b14213a99a7275070c381f6}{{3.25}{20}{Public Member Functions}{section*.59}{}}
\newlabel{class_protocol_ab8aecf404323f93c582330acbfeda1be}{{3.25}{20}{Public Member Functions}{section*.59}{}}
\newlabel{class_protocol_a57ebb24ec3965ee927acf7c790f0fd0a}{{3.25}{20}{Public Member Functions}{section*.59}{}}
\newlabel{class_protocol_a75bcea808592af82d514baf901a583ed}{{3.25}{20}{Public Member Functions}{section*.59}{}}
\newlabel{class_protocol_a1092628e8b7a41317b51d10a550ddca2}{{3.25}{20}{Public Member Functions}{section*.59}{}}
\newlabel{class_protocol_a2df168c8d79263a77f06d83b76c19a7d}{{3.25}{20}{Public Member Functions}{section*.59}{}}
\newlabel{class_protocol_ad1d8f5cad6f989f03040c37c4ee0b7a4}{{3.25}{20}{Public Attributes}{section*.60}{}}
\@writefile{toc}{\contentsline {subsection}{\numberline {3.25.1}Detailed Description}{21}{subsection.3.25.1}}
\@writefile{toc}{\contentsline {section}{\numberline {3.26}Real\discretionary {\unhbox \voidb@x \hbox {\relax \fontsize  {7}{8}\selectfont  $\leftarrow \joinrel  \rhook $}}{}{}Crypto Class Reference}{21}{section.3.26}}
\newlabel{class_real_crypto}{{3.26}{21}{Real\+Crypto Class Reference}{section.3.26}{}}
\newlabel{class_real_crypto_ac790da4b7c880ed6352f7eb107c3f464}{{3.26}{21}{Static Public Member Functions}{section*.62}{}}
\newlabel{class_real_crypto_a2b31674e5789af1ad13b1808b3c685fb}{{3.26}{21}{Static Public Member Functions}{section*.62}{}}
\newlabel{class_real_crypto_a51c3b7aad2bfa992abb1d0d682d7e5c4}{{3.26}{21}{Static Public Member Functions}{section*.62}{}}
\newlabel{class_real_crypto_a020b9bdd0e56a3ab6e88813aebb2b3a6}{{3.26}{21}{Static Public Member Functions}{section*.62}{}}
\@writefile{toc}{\contentsline {section}{\numberline {3.27}Secure\discretionary {\unhbox \voidb@x \hbox {\relax \fontsize  {7}{8}\selectfont  $\leftarrow \joinrel  \rhook $}}{}{}Packet Class Reference}{21}{section.3.27}}
\newlabel{class_secure_packet}{{3.27}{21}{Secure\+Packet Class Reference}{section.3.27}{}}
\newlabel{class_secure_packet_ac6f33143b2cd83a7c3022c0ab42218f1}{{3.27}{22}{Public Member Functions}{section*.64}{}}
\newlabel{class_secure_packet_a2d0efee06b02954c2b3522c16e482418}{{3.27}{22}{Public Member Functions}{section*.64}{}}
\@writefile{toc}{\contentsline {section}{\numberline {3.28}Secure\discretionary {\unhbox \voidb@x \hbox {\relax \fontsize  {7}{8}\selectfont  $\leftarrow \joinrel  \rhook $}}{}{}Packet\discretionary {\unhbox \voidb@x \hbox {\relax \fontsize  {7}{8}\selectfont  $\leftarrow \joinrel  \rhook $}}{}{}Data Union Reference}{22}{section.3.28}}
\newlabel{union_secure_packet_data}{{3.28}{22}{Secure\+Packet\+Data Union Reference}{section.3.28}{}}
\newlabel{union_secure_packet_data_afd083835293a21fb89d6b96aa7b10082}{{3.28}{22}{Public Attributes}{section*.66}{}}
\newlabel{union_secure_packet_data_aa1ee3e29ed0e3aa4d20e6c2a69785e75}{{3.28}{22}{Public Attributes}{section*.66}{}}
\newlabel{union_secure_packet_data_a21883579296c06756541185100738344}{{3.28}{22}{Public Attributes}{section*.66}{}}
\@writefile{toc}{\contentsline {section}{\numberline {3.29}Simulated\discretionary {\unhbox \voidb@x \hbox {\relax \fontsize  {7}{8}\selectfont  $\leftarrow \joinrel  \rhook $}}{}{}Crypto Class Reference}{22}{section.3.29}}
\newlabel{class_simulated_crypto}{{3.29}{22}{Simulated\+Crypto Class Reference}{section.3.29}{}}
\newlabel{class_simulated_crypto_ad6e0e63b9cac7bf3d4fae7e56b98eb3f}{{3.29}{23}{Static Public Member Functions}{section*.68}{}}
\newlabel{class_simulated_crypto_a72492a24f3b527b4bc06c540c01ad68c}{{3.29}{23}{Static Public Member Functions}{section*.68}{}}
\newlabel{class_simulated_crypto_a4d3a791ad68869463eacc30140c3abc0}{{3.29}{23}{Static Public Member Functions}{section*.68}{}}
\newlabel{class_simulated_crypto_a3dbcfd135a98a807b37d3c593cce587b}{{3.29}{23}{Static Public Member Functions}{section*.68}{}}
\@writefile{toc}{\contentsline {section}{\numberline {3.30}Simulation Class Reference}{23}{section.3.30}}
\newlabel{class_simulation}{{3.30}{23}{Simulation Class Reference}{section.3.30}{}}
\newlabel{class_simulation_a7b2a8b6734815d0d7a34a860767bd1b8}{{3.30}{23}{Public Member Functions}{section*.70}{}}
\newlabel{class_simulation_a0330b7d30af213f0d07a3958b728853e}{{3.30}{23}{Public Member Functions}{section*.70}{}}
\newlabel{class_simulation_ab754c23fba87f6a3ff77ca14bb84bcad}{{3.30}{23}{Public Member Functions}{section*.70}{}}
\newlabel{class_simulation_ac4283a831a1d9b7774a948cc2f2dd785}{{3.30}{23}{Protected Attributes}{section*.71}{}}
\@writefile{toc}{\contentsline {subsection}{\numberline {3.30.1}Detailed Description}{23}{subsection.3.30.1}}
\@writefile{toc}{\contentsline {section}{\numberline {3.31}Sync\discretionary {\unhbox \voidb@x \hbox {\relax \fontsize  {7}{8}\selectfont  $\leftarrow \joinrel  \rhook $}}{}{}Ask\discretionary {\unhbox \voidb@x \hbox {\relax \fontsize  {7}{8}\selectfont  $\leftarrow \joinrel  \rhook $}}{}{}Packet Class Reference}{24}{section.3.31}}
\newlabel{class_sync_ask_packet}{{3.31}{24}{Sync\+Ask\+Packet Class Reference}{section.3.31}{}}
\@writefile{toc}{\contentsline {section}{\numberline {3.32}Test\discretionary {\unhbox \voidb@x \hbox {\relax \fontsize  {7}{8}\selectfont  $\leftarrow \joinrel  \rhook $}}{}{}Simulation Class Reference}{24}{section.3.32}}
\newlabel{class_test_simulation}{{3.32}{24}{Test\+Simulation Class Reference}{section.3.32}{}}
\newlabel{class_test_simulation_aa4ee6feaa91525ebc6c00fff7c26163d}{{3.32}{24}{Public Member Functions}{section*.75}{}}
\newlabel{class_test_simulation_a92dc3827b4b8ab97f10e00c3a886ec45}{{3.32}{24}{Public Member Functions}{section*.75}{}}
\@writefile{toc}{\contentsline {section}{\numberline {3.33}X\discretionary {\unhbox \voidb@x \hbox {\relax \fontsize  {7}{8}\selectfont  $\leftarrow \joinrel  \rhook $}}{}{}M\discretionary {\unhbox \voidb@x \hbox {\relax \fontsize  {7}{8}\selectfont  $\leftarrow \joinrel  \rhook $}}{}{}L\discretionary {\unhbox \voidb@x \hbox {\relax \fontsize  {7}{8}\selectfont  $\leftarrow \joinrel  \rhook $}}{}{}Simulation Class Reference}{25}{section.3.33}}
\newlabel{class_x_m_l_simulation}{{3.33}{25}{X\+M\+L\+Simulation Class Reference}{section.3.33}{}}
\newlabel{class_x_m_l_simulation_a1fe24c8d46ba291ab7531e1ccd3cc99c}{{3.33}{25}{Public Member Functions}{section*.78}{}}
\newlabel{class_x_m_l_simulation_a9fcc86abf6882efe61339b23693c488b}{{3.33}{25}{Public Member Functions}{section*.78}{}}
