\relax 
\citation{schweppe2011car2x}
\providecommand \oddpage@label [2]{}
\@writefile{toc}{\contentsline {section}{\numberline {1}Introduction}{1}}
\@writefile{toc}{\contentsline {section}{\numberline {2}Technology and Protocols}{1}}
\@writefile{toc}{\contentsline {subsection}{\numberline {2.1}CAN}{1}}
\@writefile{toc}{\contentsline {subsection}{\numberline {2.2}CAN-FD}{1}}
\@writefile{toc}{\contentsline {subsection}{\numberline {2.3}AES-128}{1}}
\@writefile{toc}{\contentsline {subsection}{\numberline {2.4}Curve25519}{1}}
\@writefile{toc}{\contentsline {subsection}{\numberline {2.5}Ed25519}{1}}
\@writefile{toc}{\contentsline {subsection}{\numberline {2.6}X.509}{2}}
\@writefile{toc}{\contentsline {subsection}{\numberline {2.7}ECDHE}{2}}
\@writefile{toc}{\contentsline {section}{\numberline {3}Challenges}{2}}
\@writefile{toc}{\contentsline {subsection}{\numberline {3.1}Authentication}{2}}
\@writefile{toc}{\contentsline {subsection}{\numberline {3.2}Freshness Value and Synchronization}{2}}
\@writefile{toc}{\contentsline {subsection}{\numberline {3.3}Session Key Creation and Synchronization}{2}}
\@writefile{toc}{\contentsline {subsection}{\numberline {3.4}Scenario Detection}{2}}
\@writefile{lot}{\contentsline {table}{\numberline {1}{\ignorespaces Developed protocol features are shown.}}{2}}
\@writefile{toc}{\contentsline {subsection}{\numberline {3.5}Certificates in One CAN-FD Frame}{2}}
\@writefile{toc}{\contentsline {section}{\numberline {4}Adversary and Attacks}{2}}
\@writefile{toc}{\contentsline {subsection}{\numberline {4.1}[adversary type]}{2}}
\bibdata{bib,CPS}
\bibcite{schweppe2011car2x}{1}
\bibstyle{unsrt}
\newlabel{fig-protocol-frame}{{7}{3}}
\@writefile{lof}{\contentsline {figure}{\numberline {1}{\ignorespaces TODO}}{3}}
\@writefile{toc}{\contentsline {subsubsection}{\numberline {4.1.1}[attack type]}{3}}
\@writefile{toc}{\contentsline {section}{\numberline {5}Implementation}{3}}
\@writefile{toc}{\contentsline {section}{\numberline {6}Simulation}{3}}
\@writefile{toc}{\contentsline {section}{\numberline {7}Protocol}{3}}
\@writefile{toc}{\contentsline {subsection}{\numberline {7.1}Feasibility}{3}}
