\relax 
\providecommand\hyper@newdestlabel[2]{}
\providecommand\HyperFirstAtBeginDocument{\AtBeginDocument}
\HyperFirstAtBeginDocument{\ifx\hyper@anchor\@undefined
\global\let\oldcontentsline\contentsline
\gdef\contentsline#1#2#3#4{\oldcontentsline{#1}{#2}{#3}}
\global\let\oldnewlabel\newlabel
\gdef\newlabel#1#2{\newlabelxx{#1}#2}
\gdef\newlabelxx#1#2#3#4#5#6{\oldnewlabel{#1}{{#2}{#3}}}
\AtEndDocument{\ifx\hyper@anchor\@undefined
\let\contentsline\oldcontentsline
\let\newlabel\oldnewlabel
\fi}
\fi}
\global\let\hyper@last\relax 
\gdef\HyperFirstAtBeginDocument#1{#1}
\providecommand\HyField@AuxAddToFields[1]{}
\providecommand\HyField@AuxAddToCoFields[2]{}
\providecommand \oddpage@label [2]{}
\@writefile{toc}{\contentsline {chapter}{\numberline {1}Hierarchical Index}{1}{chapter.1}}
\@writefile{lof}{\addvspace {10\p@ }}
\@writefile{lot}{\addvspace {10\p@ }}
\@writefile{toc}{\contentsline {section}{\numberline {1.1}Class Hierarchy}{1}{section.1.1}}
\@writefile{toc}{\contentsline {chapter}{\numberline {2}Class Index}{3}{chapter.2}}
\@writefile{lof}{\addvspace {10\p@ }}
\@writefile{lot}{\addvspace {10\p@ }}
\@writefile{toc}{\contentsline {section}{\numberline {2.1}Class List}{3}{section.2.1}}
\@writefile{toc}{\contentsline {chapter}{\numberline {3}Class Documentation}{5}{chapter.3}}
\@writefile{lof}{\addvspace {10\p@ }}
\@writefile{lot}{\addvspace {10\p@ }}
\@writefile{toc}{\contentsline {section}{\numberline {3.1}Base\discretionary {\unhbox \voidb@x \hbox {\relax \fontsize  {7}{8}\selectfont  $\leftarrow \joinrel  \rhook $}}{}{}Crypto Class Reference}{5}{section.3.1}}
\newlabel{class_base_crypto}{{3.1}{5}{Base\+Crypto Class Reference}{section.3.1}{}}
\newlabel{class_base_crypto_aef524f84b1f71b950396f68c09093c28}{{3.1}{5}{Static Public Member Functions}{section*.2}{}}
\@writefile{toc}{\contentsline {section}{\numberline {3.2}Base\discretionary {\unhbox \voidb@x \hbox {\relax \fontsize  {7}{8}\selectfont  $\leftarrow \joinrel  \rhook $}}{}{}Packet Class Reference}{5}{section.3.2}}
\newlabel{class_base_packet}{{3.2}{5}{Base\+Packet Class Reference}{section.3.2}{}}
\newlabel{class_base_packet_afea2cdbf203f24f518dc4cfa0d33e766}{{3.2}{5}{Public Member Functions}{section*.3}{}}
\newlabel{class_base_packet_adf8cdc6e3bb385b990eac582303526c1}{{3.2}{5}{Public Member Functions}{section*.3}{}}
\newlabel{class_base_packet_a928823a3221e0455751257ad4a3f2395}{{3.2}{5}{Public Member Functions}{section*.3}{}}
\newlabel{class_base_packet_aa3d3bb4c4b6f1ce09b171739273bb56d}{{3.2}{5}{Public Member Functions}{section*.3}{}}
\@writefile{toc}{\contentsline {section}{\numberline {3.3}Base\discretionary {\unhbox \voidb@x \hbox {\relax \fontsize  {7}{8}\selectfont  $\leftarrow \joinrel  \rhook $}}{}{}Protocol Class Reference}{6}{section.3.3}}
\newlabel{class_base_protocol}{{3.3}{6}{Base\+Protocol Class Reference}{section.3.3}{}}
\newlabel{class_base_protocol_aef417c8132a74d0ef84e60f40785026b}{{3.3}{6}{Public Member Functions}{section*.5}{}}
\newlabel{class_base_protocol_a04ae119ab2b30810d6f553b8fb5ee8ab}{{3.3}{6}{Public Member Functions}{section*.5}{}}
\newlabel{class_base_protocol_a0e00e4f9531c34a17d3d9710ac9287e4}{{3.3}{6}{Public Member Functions}{section*.5}{}}
\newlabel{class_base_protocol_ae3adf0496945a2433e832016b0057cbc}{{3.3}{6}{Public Member Functions}{section*.5}{}}
\newlabel{class_base_protocol_a4f2cd7ddc46bf3d4f125b7fb2b423031}{{3.3}{6}{Public Member Functions}{section*.5}{}}
\newlabel{class_base_protocol_ada2fa096a186f71b3bd87bb43c7acc22}{{3.3}{6}{Public Member Functions}{section*.5}{}}
\newlabel{class_base_protocol_aa2d70b3a1f16325222a3075147c86ef1}{{3.3}{6}{Public Member Functions}{section*.5}{}}
\newlabel{class_base_protocol_abca178572bb2695f099b634817a07e30}{{3.3}{6}{Public Member Functions}{section*.5}{}}
\newlabel{class_base_protocol_abc4ec74bbbed5e9af6a1e32589210225}{{3.3}{6}{Public Member Functions}{section*.5}{}}
\newlabel{class_base_protocol_a2d9fcbc2be0a587336c40490aa804e23}{{3.3}{6}{Public Member Functions}{section*.5}{}}
\newlabel{class_base_protocol_a2434750ec7ee308b213ad8e9ecbacb7b}{{3.3}{6}{Public Member Functions}{section*.5}{}}
\newlabel{class_base_protocol_a9e35d2aca84e0828d45c520eb15f7684}{{3.3}{6}{Public Member Functions}{section*.5}{}}
\newlabel{class_base_protocol_a764341dea9582d6d040d1b5e7b7a0ac8}{{3.3}{6}{Public Member Functions}{section*.5}{}}
\newlabel{class_base_protocol_ab9134b61ef6e4f1d863691964299551d}{{3.3}{6}{Public Member Functions}{section*.5}{}}
\newlabel{class_base_protocol_a05fce1fe039a669baecd929c0eb05f1c}{{3.3}{6}{Public Member Functions}{section*.5}{}}
\newlabel{class_base_protocol_aeb91d392ce49358dd00cf94e42a06225}{{3.3}{6}{Public Member Functions}{section*.5}{}}
\newlabel{class_base_protocol_accc73715a8f62dde2e7344923db31db2}{{3.3}{6}{Public Member Functions}{section*.5}{}}
\newlabel{class_base_protocol_a88ace9b4a7cce0b69490c4942b16049f}{{3.3}{6}{Public Member Functions}{section*.5}{}}
\@writefile{toc}{\contentsline {section}{\numberline {3.4}Bus Class Reference}{6}{section.3.4}}
\newlabel{class_bus}{{3.4}{6}{Bus Class Reference}{section.3.4}{}}
\newlabel{class_bus_a8118c47676ba071c16b2629118a949cb}{{3.4}{6}{Public Member Functions}{section*.6}{}}
\newlabel{class_bus_af4d30e0288a43e94acf156234eb1498d}{{3.4}{6}{Public Member Functions}{section*.6}{}}
\newlabel{class_bus_a2d8522551041551eb94fa232528bd898}{{3.4}{6}{Public Member Functions}{section*.6}{}}
\newlabel{class_bus_a544ac77f9a2851869199500cd97e8bf4}{{3.4}{6}{Public Member Functions}{section*.6}{}}
\newlabel{class_bus_a49a63fee2b2e07fcca5024f1c78d5282}{{3.4}{6}{Public Member Functions}{section*.6}{}}
\newlabel{class_bus_a57294b4f13f0c09eaf203a77adc5b9b7}{{3.4}{6}{Public Member Functions}{section*.6}{}}
\newlabel{class_bus_a535549d2bde5df9c46bd8aecc266554b}{{3.4}{6}{Public Member Functions}{section*.6}{}}
\newlabel{class_bus_a0fcb3675d667755c075c1a6bf1175546}{{3.4}{6}{Public Member Functions}{section*.6}{}}
\newlabel{class_bus_a238de944b35600647550936507d89cc1}{{3.4}{6}{Public Member Functions}{section*.6}{}}
\newlabel{class_bus_ac22e4c8df3cba5041d153f062f79ba69}{{3.4}{7}{Public Attributes}{section*.7}{}}
\newlabel{class_bus_aa8d809a9742401d19b6f1368247e0674}{{3.4}{7}{Public Attributes}{section*.7}{}}
\newlabel{class_bus_a260170d0bcee49612538e7b3793895c4}{{3.4}{7}{Public Attributes}{section*.7}{}}
\newlabel{class_bus_a97374261c8cd5bc49d940f39604e5525}{{3.4}{7}{Public Attributes}{section*.7}{}}
\newlabel{class_bus_a29ad785e3c70973501e9e64ca0fe34f7}{{3.4}{7}{Public Attributes}{section*.7}{}}
\@writefile{toc}{\contentsline {subsection}{\numberline {3.4.1}Detailed Description}{7}{subsection.3.4.1}}
\@writefile{toc}{\contentsline {subsection}{\numberline {3.4.2}Member Function Documentation}{7}{subsection.3.4.2}}
\newlabel{class_bus_a996096e13247f6844a8404f3581b7d50}{{3.4.2}{7}{Member Function Documentation}{subsection.3.4.2}{}}
\@writefile{toc}{\contentsline {subsubsection}{\numberline {3.4.2.1}operator$<$$<$()}{7}{subsubsection.3.4.2.1}}
\@writefile{toc}{\contentsline {section}{\numberline {3.5}C1 Class Reference}{7}{section.3.5}}
\newlabel{class_c1}{{3.5}{7}{C1 Class Reference}{section.3.5}{}}
\@writefile{toc}{\contentsline {section}{\numberline {3.6}C\discretionary {\unhbox \voidb@x \hbox {\relax \fontsize  {7}{8}\selectfont  $\leftarrow \joinrel  \rhook $}}{}{}A\discretionary {\unhbox \voidb@x \hbox {\relax \fontsize  {7}{8}\selectfont  $\leftarrow \joinrel  \rhook $}}{}{}N\discretionary {\unhbox \voidb@x \hbox {\relax \fontsize  {7}{8}\selectfont  $\leftarrow \joinrel  \rhook $}}{}{}Auth\discretionary {\unhbox \voidb@x \hbox {\relax \fontsize  {7}{8}\selectfont  $\leftarrow \joinrel  \rhook $}}{}{}Packet Class Reference}{8}{section.3.6}}
\newlabel{class_c_a_n_auth_packet}{{3.6}{8}{C\+A\+N\+Auth\+Packet Class Reference}{section.3.6}{}}
\@writefile{toc}{\contentsline {section}{\numberline {3.7}C\discretionary {\unhbox \voidb@x \hbox {\relax \fontsize  {7}{8}\selectfont  $\leftarrow \joinrel  \rhook $}}{}{}A\discretionary {\unhbox \voidb@x \hbox {\relax \fontsize  {7}{8}\selectfont  $\leftarrow \joinrel  \rhook $}}{}{}N\discretionary {\unhbox \voidb@x \hbox {\relax \fontsize  {7}{8}\selectfont  $\leftarrow \joinrel  \rhook $}}{}{}Socket Class Reference}{8}{section.3.7}}
\newlabel{class_c_a_n_socket}{{3.7}{8}{C\+A\+N\+Socket Class Reference}{section.3.7}{}}
\newlabel{class_c_a_n_socket_abcc07ef946c2ea6a9ca6941f4907dc67}{{3.7}{8}{Public Member Functions}{section*.10}{}}
\newlabel{class_c_a_n_socket_a232eea0562211cb08f4dcc35a8b11c99}{{3.7}{8}{Public Member Functions}{section*.10}{}}
\newlabel{class_c_a_n_socket_affa6093ed4c612d01ab4635155ca299e}{{3.7}{8}{Public Member Functions}{section*.10}{}}
\@writefile{toc}{\contentsline {subsection}{\numberline {3.7.1}Detailed Description}{8}{subsection.3.7.1}}
\@writefile{toc}{\contentsline {section}{\numberline {3.8}Centeralized\discretionary {\unhbox \voidb@x \hbox {\relax \fontsize  {7}{8}\selectfont  $\leftarrow \joinrel  \rhook $}}{}{}Protocol Class Reference}{9}{section.3.8}}
\newlabel{class_centeralized_protocol}{{3.8}{9}{Centeralized\+Protocol Class Reference}{section.3.8}{}}
\@writefile{toc}{\contentsline {section}{\numberline {3.9}Certificate\discretionary {\unhbox \voidb@x \hbox {\relax \fontsize  {7}{8}\selectfont  $\leftarrow \joinrel  \rhook $}}{}{}Packet Class Reference}{9}{section.3.9}}
\newlabel{class_certificate_packet}{{3.9}{9}{Certificate\+Packet Class Reference}{section.3.9}{}}
\newlabel{class_certificate_packet_a53cc8d1c878b4d3704d4fbf78b404589}{{3.9}{9}{Public Member Functions}{section*.12}{}}
\@writefile{toc}{\contentsline {section}{\numberline {3.10}Certificate\discretionary {\unhbox \voidb@x \hbox {\relax \fontsize  {7}{8}\selectfont  $\leftarrow \joinrel  \rhook $}}{}{}Packet\discretionary {\unhbox \voidb@x \hbox {\relax \fontsize  {7}{8}\selectfont  $\leftarrow \joinrel  \rhook $}}{}{}Data Union Reference}{9}{section.3.10}}
\newlabel{union_certificate_packet_data}{{3.10}{9}{Certificate\+Packet\+Data Union Reference}{section.3.10}{}}
\newlabel{union_certificate_packet_data_a00c6f203d890f35df21b644b00d469db}{{3.10}{9}{Public Attributes}{section*.14}{}}
\newlabel{union_certificate_packet_data_a20ef856f6c1ace3eab0ffb7889b01a15}{{3.10}{9}{Public Attributes}{section*.14}{}}
\newlabel{union_certificate_packet_data_a1f3bb56b79879f073a1c8d32e5fc3469}{{3.10}{9}{Public Attributes}{section*.14}{}}
\@writefile{toc}{\contentsline {section}{\numberline {3.11}Clock Class Reference}{10}{section.3.11}}
\newlabel{class_clock}{{3.11}{10}{Clock Class Reference}{section.3.11}{}}
\@writefile{toc}{\contentsline {subsection}{\numberline {3.11.1}Detailed Description}{10}{subsection.3.11.1}}
\@writefile{toc}{\contentsline {section}{\numberline {3.12}D1 Class Reference}{10}{section.3.12}}
\newlabel{class_d1}{{3.12}{10}{D1 Class Reference}{section.3.12}{}}
\@writefile{toc}{\contentsline {section}{\numberline {3.13}Distributed\discretionary {\unhbox \voidb@x \hbox {\relax \fontsize  {7}{8}\selectfont  $\leftarrow \joinrel  \rhook $}}{}{}Protocol Class Reference}{10}{section.3.13}}
\newlabel{class_distributed_protocol}{{3.13}{10}{Distributed\+Protocol Class Reference}{section.3.13}{}}
\@writefile{toc}{\contentsline {section}{\numberline {3.14}E\discretionary {\unhbox \voidb@x \hbox {\relax \fontsize  {7}{8}\selectfont  $\leftarrow \joinrel  \rhook $}}{}{}CU Class Reference}{11}{section.3.14}}
\newlabel{class_e_c_u}{{3.14}{11}{E\+CU Class Reference}{section.3.14}{}}
\newlabel{class_e_c_u_aab5011082ec9aba853a34a80a757b595}{{3.14}{11}{Public Member Functions}{section*.17}{}}
\newlabel{class_e_c_u_a3a4352765eb0f3cd03085be1817d896f}{{3.14}{11}{Public Member Functions}{section*.17}{}}
\newlabel{class_e_c_u_ab335841daae12ad638fa1e05a1f0c2c6}{{3.14}{11}{Public Member Functions}{section*.17}{}}
\newlabel{class_e_c_u_abed5110003f094028c6220e73ae5d01b}{{3.14}{11}{Public Member Functions}{section*.17}{}}
\newlabel{class_e_c_u_a3a9a79b10b9f30e860f283bdd89e00a6}{{3.14}{11}{Public Member Functions}{section*.17}{}}
\@writefile{toc}{\contentsline {section}{\numberline {3.15}Gateway Class Reference}{11}{section.3.15}}
\newlabel{class_gateway}{{3.15}{11}{Gateway Class Reference}{section.3.15}{}}
\newlabel{class_gateway_a99e60f9511ee5bf2c380995375750379}{{3.15}{11}{Public Member Functions}{section*.18}{}}
\@writefile{toc}{\contentsline {subsection}{\numberline {3.15.1}Detailed Description}{11}{subsection.3.15.1}}
\@writefile{toc}{\contentsline {section}{\numberline {3.16}G\discretionary {\unhbox \voidb@x \hbox {\relax \fontsize  {7}{8}\selectfont  $\leftarrow \joinrel  \rhook $}}{}{}UI Class Reference}{11}{section.3.16}}
\newlabel{class_g_u_i}{{3.16}{11}{G\+UI Class Reference}{section.3.16}{}}
\newlabel{class_g_u_i_a5f00ff7017a733d8e5489c99d041ad58}{{3.16}{12}{Public Member Functions}{section*.19}{}}
\newlabel{class_g_u_i_ab315d8a49fdffb8112b0165c78c654f4}{{3.16}{12}{Public Member Functions}{section*.19}{}}
\@writefile{toc}{\contentsline {subsection}{\numberline {3.16.1}Detailed Description}{12}{subsection.3.16.1}}
\@writefile{toc}{\contentsline {section}{\numberline {3.17}G\discretionary {\unhbox \voidb@x \hbox {\relax \fontsize  {7}{8}\selectfont  $\leftarrow \joinrel  \rhook $}}{}{}U\discretionary {\unhbox \voidb@x \hbox {\relax \fontsize  {7}{8}\selectfont  $\leftarrow \joinrel  \rhook $}}{}{}I\discretionary {\unhbox \voidb@x \hbox {\relax \fontsize  {7}{8}\selectfont  $\leftarrow \joinrel  \rhook $}}{}{}Component Class Reference}{12}{section.3.17}}
\newlabel{class_g_u_i_component}{{3.17}{12}{G\+U\+I\+Component Class Reference}{section.3.17}{}}
\newlabel{class_g_u_i_component_ab5d42938fe26f87872b188b7ea36dea9}{{3.17}{12}{Public Member Functions}{section*.20}{}}
\newlabel{class_g_u_i_component_a3f6706cd1165750425c3a5b6fc88965e}{{3.17}{12}{Public Member Functions}{section*.20}{}}
\newlabel{class_g_u_i_component_a850e62466c1472ffe47602bc9046f7f4}{{3.17}{12}{Public Member Functions}{section*.20}{}}
\newlabel{class_g_u_i_component_aaa4f11d753b7302cbeb7fa0c7df67da7}{{3.17}{12}{Protected Attributes}{section*.21}{}}
\@writefile{toc}{\contentsline {subsection}{\numberline {3.17.1}Detailed Description}{12}{subsection.3.17.1}}
\@writefile{toc}{\contentsline {section}{\numberline {3.18}Key\discretionary {\unhbox \voidb@x \hbox {\relax \fontsize  {7}{8}\selectfont  $\leftarrow \joinrel  \rhook $}}{}{}Distribution\discretionary {\unhbox \voidb@x \hbox {\relax \fontsize  {7}{8}\selectfont  $\leftarrow \joinrel  \rhook $}}{}{}Packet Class Reference}{12}{section.3.18}}
\newlabel{class_key_distribution_packet}{{3.18}{12}{Key\+Distribution\+Packet Class Reference}{section.3.18}{}}
\newlabel{class_key_distribution_packet_aaa1aec9869b6adef62fbfd5cc8e37595}{{3.18}{13}{Public Member Functions}{section*.22}{}}
\newlabel{class_key_distribution_packet_a887d5b290f8c51335ad0d4d739c97342}{{3.18}{13}{Public Member Functions}{section*.22}{}}
\@writefile{toc}{\contentsline {section}{\numberline {3.19}Key\discretionary {\unhbox \voidb@x \hbox {\relax \fontsize  {7}{8}\selectfont  $\leftarrow \joinrel  \rhook $}}{}{}Negotiation\discretionary {\unhbox \voidb@x \hbox {\relax \fontsize  {7}{8}\selectfont  $\leftarrow \joinrel  \rhook $}}{}{}Packet Class Reference}{13}{section.3.19}}
\newlabel{class_key_negotiation_packet}{{3.19}{13}{Key\+Negotiation\+Packet Class Reference}{section.3.19}{}}
\newlabel{class_key_negotiation_packet_a66df665627890062a499cbcfc0127cc3}{{3.19}{13}{Public Member Functions}{section*.24}{}}
\newlabel{class_key_negotiation_packet_aeabea7266551b2a0827ec742483ff3f2}{{3.19}{13}{Public Member Functions}{section*.24}{}}
\@writefile{toc}{\contentsline {section}{\numberline {3.20}M1 Class Reference}{13}{section.3.20}}
\newlabel{class_m1}{{3.20}{13}{M1 Class Reference}{section.3.20}{}}
\@writefile{toc}{\contentsline {section}{\numberline {3.21}Malfunction\discretionary {\unhbox \voidb@x \hbox {\relax \fontsize  {7}{8}\selectfont  $\leftarrow \joinrel  \rhook $}}{}{}Protocol Class Reference}{13}{section.3.21}}
\newlabel{class_malfunction_protocol}{{3.21}{13}{Malfunction\+Protocol Class Reference}{section.3.21}{}}
\@writefile{toc}{\contentsline {section}{\numberline {3.22}Metric Struct Reference}{14}{section.3.22}}
\newlabel{struct_metric}{{3.22}{14}{Metric Struct Reference}{section.3.22}{}}
\newlabel{struct_metric_a86839b3b5a2e6abeb1c7b4b57fe21a2f}{{3.22}{14}{Public Attributes}{section*.28}{}}
\newlabel{struct_metric_ad4b7de48e5b3c9fabccc0f9c68dcbb22}{{3.22}{14}{Public Attributes}{section*.28}{}}
\newlabel{struct_metric_a0d220cea448ce250aacc3f0db6525c70}{{3.22}{14}{Public Attributes}{section*.28}{}}
\newlabel{struct_metric_aa253f454ab495b8602b1f5bf244a3399}{{3.22}{14}{Public Attributes}{section*.28}{}}
\newlabel{struct_metric_a3a51327ae10b5ebc62387d1cef3ac6da}{{3.22}{14}{Public Attributes}{section*.28}{}}
\@writefile{toc}{\contentsline {section}{\numberline {3.23}Node Class Reference}{14}{section.3.23}}
\newlabel{class_node}{{3.23}{14}{Node Class Reference}{section.3.23}{}}
\newlabel{class_node_a75302f06060ac69f17e68a1d79e4c1e1}{{3.23}{14}{Public Member Functions}{section*.29}{}}
\@writefile{toc}{\contentsline {subsection}{\numberline {3.23.1}Detailed Description}{14}{subsection.3.23.1}}
\@writefile{toc}{\contentsline {section}{\numberline {3.24}Node\discretionary {\unhbox \voidb@x \hbox {\relax \fontsize  {7}{8}\selectfont  $\leftarrow \joinrel  \rhook $}}{}{}Display Class Reference}{14}{section.3.24}}
\newlabel{class_node_display}{{3.24}{14}{Node\+Display Class Reference}{section.3.24}{}}
\newlabel{class_node_display_a9e78d0155005ebe191de7f87aa63e2e6}{{3.24}{15}{Public Member Functions}{section*.30}{}}
\@writefile{toc}{\contentsline {subsection}{\numberline {3.24.1}Detailed Description}{15}{subsection.3.24.1}}
\@writefile{toc}{\contentsline {section}{\numberline {3.25}Packet Class Reference}{15}{section.3.25}}
\newlabel{class_packet}{{3.25}{15}{Packet Class Reference}{section.3.25}{}}
\newlabel{class_packet_aae390f7bba3528aee2fbe9c91232b53c}{{3.25}{15}{Public Member Functions}{section*.32}{}}
\newlabel{class_packet_a057192d707d1e6c81137626f0b29c5ed}{{3.25}{15}{Public Member Functions}{section*.32}{}}
\newlabel{class_packet_ab944cf4e450719dcaff4a75238f4b49b}{{3.25}{15}{Public Member Functions}{section*.32}{}}
\newlabel{class_packet_ad2a06ea225dbbe6b46b5c62e7432c829}{{3.25}{15}{Public Member Functions}{section*.32}{}}
\newlabel{class_packet_aebbae2cef32f967d0bbcabbe41dae6bf}{{3.25}{15}{Public Attributes}{section*.33}{}}
\newlabel{class_packet_aca3121ac2a3b91124d32d8665c86737a}{{3.25}{15}{Public Attributes}{section*.33}{}}
\newlabel{class_packet_a1e664d32e0360a31ae5073f488bde53c}{{3.25}{15}{Public Attributes}{section*.33}{}}
\newlabel{class_packet_abb6d100cc6a092b52f31bd0826b7b7ca}{{3.25}{15}{Public Attributes}{section*.33}{}}
\newlabel{class_packet_a0da53e004720d2df0f92aa7ce4f98b40}{{3.25}{15}{Public Attributes}{section*.33}{}}
\newlabel{class_packet_a6cb21783a5498004748ac514be5f822a}{{3.25}{15}{Public Attributes}{section*.33}{}}
\newlabel{class_packet_ab32b6f3bd029fa27fdda3840f5002603}{{3.25}{15}{Public Attributes}{section*.33}{}}
\@writefile{toc}{\contentsline {subsection}{\numberline {3.25.1}Detailed Description}{15}{subsection.3.25.1}}
\@writefile{toc}{\contentsline {section}{\numberline {3.26}Protocol Class Reference}{16}{section.3.26}}
\newlabel{class_protocol}{{3.26}{16}{Protocol Class Reference}{section.3.26}{}}
\newlabel{class_protocol_a6300a939a7534df5fa507bea4f0c983e}{{3.26}{16}{Public Member Functions}{section*.34}{}}
\newlabel{class_protocol_acc2ae1f805d789c306b7f5799d0d2078}{{3.26}{16}{Public Member Functions}{section*.34}{}}
\newlabel{class_protocol_a3c4e091775215f82aa353d89bcb99211}{{3.26}{16}{Public Member Functions}{section*.34}{}}
\newlabel{class_protocol_acc236409af0601ac935db5890b73e90f}{{3.26}{16}{Public Member Functions}{section*.34}{}}
\newlabel{class_protocol_a017cb273c239b209b053b351d4db9c17}{{3.26}{16}{Public Member Functions}{section*.34}{}}
\newlabel{class_protocol_a2e4053947f1616ec468db51229b0a118}{{3.26}{16}{Public Member Functions}{section*.34}{}}
\newlabel{class_protocol_ab8e4c508e9939d007b57e29481ab58e3}{{3.26}{16}{Public Member Functions}{section*.34}{}}
\newlabel{class_protocol_a8bcacabcad4b691dcc1bf81037ad605f}{{3.26}{16}{Public Member Functions}{section*.34}{}}
\newlabel{class_protocol_a64f767daa5ff10878040e5155a845ab7}{{3.26}{16}{Public Member Functions}{section*.34}{}}
\newlabel{class_protocol_a94b0cf0071b2900a03b0101015a68e72}{{3.26}{16}{Public Member Functions}{section*.34}{}}
\newlabel{class_protocol_aab2d4658e13a00a48b4fccb43b5b9b0e}{{3.26}{16}{Public Member Functions}{section*.34}{}}
\newlabel{class_protocol_a13c8cb8ac2be3f6041e33624a207a6be}{{3.26}{16}{Public Member Functions}{section*.34}{}}
\newlabel{class_protocol_ab82bfc8f5b14213a99a7275070c381f6}{{3.26}{16}{Public Member Functions}{section*.34}{}}
\newlabel{class_protocol_ab8aecf404323f93c582330acbfeda1be}{{3.26}{16}{Public Member Functions}{section*.34}{}}
\newlabel{class_protocol_a57ebb24ec3965ee927acf7c790f0fd0a}{{3.26}{16}{Public Member Functions}{section*.34}{}}
\newlabel{class_protocol_a75bcea808592af82d514baf901a583ed}{{3.26}{16}{Public Member Functions}{section*.34}{}}
\newlabel{class_protocol_a1092628e8b7a41317b51d10a550ddca2}{{3.26}{16}{Public Member Functions}{section*.34}{}}
\newlabel{class_protocol_a2df168c8d79263a77f06d83b76c19a7d}{{3.26}{16}{Public Member Functions}{section*.34}{}}
\@writefile{toc}{\contentsline {subsection}{\numberline {3.26.1}Detailed Description}{16}{subsection.3.26.1}}
\@writefile{toc}{\contentsline {section}{\numberline {3.27}Real\discretionary {\unhbox \voidb@x \hbox {\relax \fontsize  {7}{8}\selectfont  $\leftarrow \joinrel  \rhook $}}{}{}Crypto Class Reference}{16}{section.3.27}}
\newlabel{class_real_crypto}{{3.27}{16}{Real\+Crypto Class Reference}{section.3.27}{}}
\newlabel{class_real_crypto_ac790da4b7c880ed6352f7eb107c3f464}{{3.27}{17}{Static Public Member Functions}{section*.35}{}}
\newlabel{class_real_crypto_a2b31674e5789af1ad13b1808b3c685fb}{{3.27}{17}{Static Public Member Functions}{section*.35}{}}
\newlabel{class_real_crypto_a51c3b7aad2bfa992abb1d0d682d7e5c4}{{3.27}{17}{Static Public Member Functions}{section*.35}{}}
\newlabel{class_real_crypto_a020b9bdd0e56a3ab6e88813aebb2b3a6}{{3.27}{17}{Static Public Member Functions}{section*.35}{}}
\@writefile{toc}{\contentsline {section}{\numberline {3.28}Secure\discretionary {\unhbox \voidb@x \hbox {\relax \fontsize  {7}{8}\selectfont  $\leftarrow \joinrel  \rhook $}}{}{}Packet Class Reference}{17}{section.3.28}}
\newlabel{class_secure_packet}{{3.28}{17}{Secure\+Packet Class Reference}{section.3.28}{}}
\newlabel{class_secure_packet_ac6f33143b2cd83a7c3022c0ab42218f1}{{3.28}{17}{Public Member Functions}{section*.36}{}}
\newlabel{class_secure_packet_a2d0efee06b02954c2b3522c16e482418}{{3.28}{17}{Public Member Functions}{section*.36}{}}
\@writefile{toc}{\contentsline {section}{\numberline {3.29}Secure\discretionary {\unhbox \voidb@x \hbox {\relax \fontsize  {7}{8}\selectfont  $\leftarrow \joinrel  \rhook $}}{}{}Packet\discretionary {\unhbox \voidb@x \hbox {\relax \fontsize  {7}{8}\selectfont  $\leftarrow \joinrel  \rhook $}}{}{}Data Union Reference}{17}{section.3.29}}
\newlabel{union_secure_packet_data}{{3.29}{17}{Secure\+Packet\+Data Union Reference}{section.3.29}{}}
\newlabel{union_secure_packet_data_afd083835293a21fb89d6b96aa7b10082}{{3.29}{17}{Public Attributes}{section*.38}{}}
\newlabel{union_secure_packet_data_aa1ee3e29ed0e3aa4d20e6c2a69785e75}{{3.29}{17}{Public Attributes}{section*.38}{}}
\newlabel{union_secure_packet_data_a21883579296c06756541185100738344}{{3.29}{17}{Public Attributes}{section*.38}{}}
\@writefile{toc}{\contentsline {section}{\numberline {3.30}Simulated\discretionary {\unhbox \voidb@x \hbox {\relax \fontsize  {7}{8}\selectfont  $\leftarrow \joinrel  \rhook $}}{}{}Crypto Class Reference}{18}{section.3.30}}
\newlabel{class_simulated_crypto}{{3.30}{18}{Simulated\+Crypto Class Reference}{section.3.30}{}}
\newlabel{class_simulated_crypto_ad6e0e63b9cac7bf3d4fae7e56b98eb3f}{{3.30}{18}{Static Public Member Functions}{section*.39}{}}
\newlabel{class_simulated_crypto_a72492a24f3b527b4bc06c540c01ad68c}{{3.30}{18}{Static Public Member Functions}{section*.39}{}}
\newlabel{class_simulated_crypto_a4d3a791ad68869463eacc30140c3abc0}{{3.30}{18}{Static Public Member Functions}{section*.39}{}}
\newlabel{class_simulated_crypto_a3dbcfd135a98a807b37d3c593cce587b}{{3.30}{18}{Static Public Member Functions}{section*.39}{}}
\@writefile{toc}{\contentsline {section}{\numberline {3.31}Simulation Class Reference}{18}{section.3.31}}
\newlabel{class_simulation}{{3.31}{18}{Simulation Class Reference}{section.3.31}{}}
\newlabel{class_simulation_a7b2a8b6734815d0d7a34a860767bd1b8}{{3.31}{18}{Public Member Functions}{section*.40}{}}
\newlabel{class_simulation_a0330b7d30af213f0d07a3958b728853e}{{3.31}{18}{Public Member Functions}{section*.40}{}}
\newlabel{class_simulation_ab754c23fba87f6a3ff77ca14bb84bcad}{{3.31}{18}{Public Member Functions}{section*.40}{}}
\newlabel{class_simulation_ac4283a831a1d9b7774a948cc2f2dd785}{{3.31}{18}{Protected Attributes}{section*.41}{}}
\@writefile{toc}{\contentsline {subsection}{\numberline {3.31.1}Detailed Description}{18}{subsection.3.31.1}}
\@writefile{toc}{\contentsline {section}{\numberline {3.32}Terminal Class Reference}{19}{section.3.32}}
\newlabel{class_terminal}{{3.32}{19}{Terminal Class Reference}{section.3.32}{}}
\newlabel{class_terminal_ac7173bf432bb897ffd1df8c588b1983d}{{3.32}{19}{Public Member Functions}{section*.42}{}}
\@writefile{toc}{\contentsline {subsection}{\numberline {3.32.1}Detailed Description}{19}{subsection.3.32.1}}
\@writefile{toc}{\contentsline {section}{\numberline {3.33}Test\discretionary {\unhbox \voidb@x \hbox {\relax \fontsize  {7}{8}\selectfont  $\leftarrow \joinrel  \rhook $}}{}{}Simulation Class Reference}{19}{section.3.33}}
\newlabel{class_test_simulation}{{3.33}{19}{Test\+Simulation Class Reference}{section.3.33}{}}
\newlabel{class_test_simulation_aa4ee6feaa91525ebc6c00fff7c26163d}{{3.33}{19}{Public Member Functions}{section*.44}{}}
\newlabel{class_test_simulation_a92dc3827b4b8ab97f10e00c3a886ec45}{{3.33}{19}{Public Member Functions}{section*.44}{}}
\@writefile{toc}{\contentsline {section}{\numberline {3.34}View\discretionary {\unhbox \voidb@x \hbox {\relax \fontsize  {7}{8}\selectfont  $\leftarrow \joinrel  \rhook $}}{}{}Component Class Reference}{19}{section.3.34}}
\newlabel{class_view_component}{{3.34}{19}{View\+Component Class Reference}{section.3.34}{}}
\newlabel{class_view_component_a80d1419587c74ef3186828787701d185}{{3.34}{20}{Public Member Functions}{section*.46}{}}
\@writefile{toc}{\contentsline {section}{\numberline {3.35}X\discretionary {\unhbox \voidb@x \hbox {\relax \fontsize  {7}{8}\selectfont  $\leftarrow \joinrel  \rhook $}}{}{}M\discretionary {\unhbox \voidb@x \hbox {\relax \fontsize  {7}{8}\selectfont  $\leftarrow \joinrel  \rhook $}}{}{}L\discretionary {\unhbox \voidb@x \hbox {\relax \fontsize  {7}{8}\selectfont  $\leftarrow \joinrel  \rhook $}}{}{}Protocol Class Reference}{20}{section.3.35}}
\newlabel{class_x_m_l_protocol}{{3.35}{20}{X\+M\+L\+Protocol Class Reference}{section.3.35}{}}
\newlabel{class_x_m_l_protocol_a43e5e19576ddc7cb2c03ad2aeab042eb}{{3.35}{20}{Public Member Functions}{section*.48}{}}
\newlabel{class_x_m_l_protocol_a7e8aee07abc20453b668b60e9e690819}{{3.35}{20}{Public Member Functions}{section*.48}{}}
\newlabel{class_x_m_l_protocol_a671d22faae13a5efc52125f8acbdd0cb}{{3.35}{20}{Public Member Functions}{section*.48}{}}
\@writefile{toc}{\contentsline {section}{\numberline {3.36}X\discretionary {\unhbox \voidb@x \hbox {\relax \fontsize  {7}{8}\selectfont  $\leftarrow \joinrel  \rhook $}}{}{}M\discretionary {\unhbox \voidb@x \hbox {\relax \fontsize  {7}{8}\selectfont  $\leftarrow \joinrel  \rhook $}}{}{}L\discretionary {\unhbox \voidb@x \hbox {\relax \fontsize  {7}{8}\selectfont  $\leftarrow \joinrel  \rhook $}}{}{}Simulation Class Reference}{20}{section.3.36}}
\newlabel{class_x_m_l_simulation}{{3.36}{20}{X\+M\+L\+Simulation Class Reference}{section.3.36}{}}
\newlabel{class_x_m_l_simulation_a1fe24c8d46ba291ab7531e1ccd3cc99c}{{3.36}{20}{Public Member Functions}{section*.49}{}}
\newlabel{class_x_m_l_simulation_a9fcc86abf6882efe61339b23693c488b}{{3.36}{20}{Public Member Functions}{section*.49}{}}
\@writefile{toc}{\contentsline {chapter}{Index}{21}{section*.51}}
