\contentsline {chapter}{\numberline {1}Hierarchical Index}{1}{chapter.1}
\contentsline {section}{\numberline {1.1}Class Hierarchy}{1}{section.1.1}
\contentsline {chapter}{\numberline {2}Class Index}{3}{chapter.2}
\contentsline {section}{\numberline {2.1}Class List}{3}{section.2.1}
\contentsline {chapter}{\numberline {3}Class Documentation}{5}{chapter.3}
\contentsline {section}{\numberline {3.1}Base\discretionary {\unhbox \voidb@x \hbox {\relax \fontsize {7}{8}\selectfont $\leftarrow \joinrel \rhook $}}{}{}Crypto Class Reference}{5}{section.3.1}
\contentsline {section}{\numberline {3.2}Base\discretionary {\unhbox \voidb@x \hbox {\relax \fontsize {7}{8}\selectfont $\leftarrow \joinrel \rhook $}}{}{}Packet Class Reference}{5}{section.3.2}
\contentsline {section}{\numberline {3.3}Base\discretionary {\unhbox \voidb@x \hbox {\relax \fontsize {7}{8}\selectfont $\leftarrow \joinrel \rhook $}}{}{}Protocol Class Reference}{6}{section.3.3}
\contentsline {section}{\numberline {3.4}Bus Class Reference}{6}{section.3.4}
\contentsline {subsection}{\numberline {3.4.1}Detailed Description}{7}{subsection.3.4.1}
\contentsline {subsection}{\numberline {3.4.2}Member Function Documentation}{7}{subsection.3.4.2}
\contentsline {subsubsection}{\numberline {3.4.2.1}operator$<$$<$()}{7}{subsubsection.3.4.2.1}
\contentsline {section}{\numberline {3.5}C1 Class Reference}{7}{section.3.5}
\contentsline {section}{\numberline {3.6}C\discretionary {\unhbox \voidb@x \hbox {\relax \fontsize {7}{8}\selectfont $\leftarrow \joinrel \rhook $}}{}{}A\discretionary {\unhbox \voidb@x \hbox {\relax \fontsize {7}{8}\selectfont $\leftarrow \joinrel \rhook $}}{}{}N\discretionary {\unhbox \voidb@x \hbox {\relax \fontsize {7}{8}\selectfont $\leftarrow \joinrel \rhook $}}{}{}Auth\discretionary {\unhbox \voidb@x \hbox {\relax \fontsize {7}{8}\selectfont $\leftarrow \joinrel \rhook $}}{}{}Packet Class Reference}{8}{section.3.6}
\contentsline {section}{\numberline {3.7}C\discretionary {\unhbox \voidb@x \hbox {\relax \fontsize {7}{8}\selectfont $\leftarrow \joinrel \rhook $}}{}{}A\discretionary {\unhbox \voidb@x \hbox {\relax \fontsize {7}{8}\selectfont $\leftarrow \joinrel \rhook $}}{}{}N\discretionary {\unhbox \voidb@x \hbox {\relax \fontsize {7}{8}\selectfont $\leftarrow \joinrel \rhook $}}{}{}Socket Class Reference}{8}{section.3.7}
\contentsline {subsection}{\numberline {3.7.1}Detailed Description}{8}{subsection.3.7.1}
\contentsline {section}{\numberline {3.8}Centeralized\discretionary {\unhbox \voidb@x \hbox {\relax \fontsize {7}{8}\selectfont $\leftarrow \joinrel \rhook $}}{}{}Protocol Class Reference}{9}{section.3.8}
\contentsline {section}{\numberline {3.9}Certificate\discretionary {\unhbox \voidb@x \hbox {\relax \fontsize {7}{8}\selectfont $\leftarrow \joinrel \rhook $}}{}{}Packet Class Reference}{9}{section.3.9}
\contentsline {section}{\numberline {3.10}Certificate\discretionary {\unhbox \voidb@x \hbox {\relax \fontsize {7}{8}\selectfont $\leftarrow \joinrel \rhook $}}{}{}Packet\discretionary {\unhbox \voidb@x \hbox {\relax \fontsize {7}{8}\selectfont $\leftarrow \joinrel \rhook $}}{}{}Data Union Reference}{9}{section.3.10}
\contentsline {section}{\numberline {3.11}Clock Class Reference}{10}{section.3.11}
\contentsline {subsection}{\numberline {3.11.1}Detailed Description}{10}{subsection.3.11.1}
\contentsline {section}{\numberline {3.12}D1 Class Reference}{10}{section.3.12}
\contentsline {section}{\numberline {3.13}Distributed\discretionary {\unhbox \voidb@x \hbox {\relax \fontsize {7}{8}\selectfont $\leftarrow \joinrel \rhook $}}{}{}Protocol Class Reference}{10}{section.3.13}
\contentsline {section}{\numberline {3.14}E\discretionary {\unhbox \voidb@x \hbox {\relax \fontsize {7}{8}\selectfont $\leftarrow \joinrel \rhook $}}{}{}CU Class Reference}{11}{section.3.14}
\contentsline {section}{\numberline {3.15}Gateway Class Reference}{11}{section.3.15}
\contentsline {subsection}{\numberline {3.15.1}Detailed Description}{11}{subsection.3.15.1}
\contentsline {section}{\numberline {3.16}G\discretionary {\unhbox \voidb@x \hbox {\relax \fontsize {7}{8}\selectfont $\leftarrow \joinrel \rhook $}}{}{}UI Class Reference}{11}{section.3.16}
\contentsline {subsection}{\numberline {3.16.1}Detailed Description}{12}{subsection.3.16.1}
\contentsline {section}{\numberline {3.17}G\discretionary {\unhbox \voidb@x \hbox {\relax \fontsize {7}{8}\selectfont $\leftarrow \joinrel \rhook $}}{}{}U\discretionary {\unhbox \voidb@x \hbox {\relax \fontsize {7}{8}\selectfont $\leftarrow \joinrel \rhook $}}{}{}I\discretionary {\unhbox \voidb@x \hbox {\relax \fontsize {7}{8}\selectfont $\leftarrow \joinrel \rhook $}}{}{}Component Class Reference}{12}{section.3.17}
\contentsline {subsection}{\numberline {3.17.1}Detailed Description}{12}{subsection.3.17.1}
\contentsline {section}{\numberline {3.18}Key\discretionary {\unhbox \voidb@x \hbox {\relax \fontsize {7}{8}\selectfont $\leftarrow \joinrel \rhook $}}{}{}Distribution\discretionary {\unhbox \voidb@x \hbox {\relax \fontsize {7}{8}\selectfont $\leftarrow \joinrel \rhook $}}{}{}Packet Class Reference}{12}{section.3.18}
\contentsline {section}{\numberline {3.19}Key\discretionary {\unhbox \voidb@x \hbox {\relax \fontsize {7}{8}\selectfont $\leftarrow \joinrel \rhook $}}{}{}Negotiation\discretionary {\unhbox \voidb@x \hbox {\relax \fontsize {7}{8}\selectfont $\leftarrow \joinrel \rhook $}}{}{}Packet Class Reference}{13}{section.3.19}
\contentsline {section}{\numberline {3.20}M1 Class Reference}{13}{section.3.20}
\contentsline {section}{\numberline {3.21}Malfunction\discretionary {\unhbox \voidb@x \hbox {\relax \fontsize {7}{8}\selectfont $\leftarrow \joinrel \rhook $}}{}{}Protocol Class Reference}{13}{section.3.21}
\contentsline {section}{\numberline {3.22}Metric Struct Reference}{14}{section.3.22}
\contentsline {section}{\numberline {3.23}Node Class Reference}{14}{section.3.23}
\contentsline {subsection}{\numberline {3.23.1}Detailed Description}{14}{subsection.3.23.1}
\contentsline {section}{\numberline {3.24}Node\discretionary {\unhbox \voidb@x \hbox {\relax \fontsize {7}{8}\selectfont $\leftarrow \joinrel \rhook $}}{}{}Display Class Reference}{14}{section.3.24}
\contentsline {subsection}{\numberline {3.24.1}Detailed Description}{15}{subsection.3.24.1}
\contentsline {section}{\numberline {3.25}Packet Class Reference}{15}{section.3.25}
\contentsline {subsection}{\numberline {3.25.1}Detailed Description}{15}{subsection.3.25.1}
\contentsline {section}{\numberline {3.26}Protocol Class Reference}{16}{section.3.26}
\contentsline {subsection}{\numberline {3.26.1}Detailed Description}{16}{subsection.3.26.1}
\contentsline {section}{\numberline {3.27}Real\discretionary {\unhbox \voidb@x \hbox {\relax \fontsize {7}{8}\selectfont $\leftarrow \joinrel \rhook $}}{}{}Crypto Class Reference}{16}{section.3.27}
\contentsline {section}{\numberline {3.28}Secure\discretionary {\unhbox \voidb@x \hbox {\relax \fontsize {7}{8}\selectfont $\leftarrow \joinrel \rhook $}}{}{}Packet Class Reference}{17}{section.3.28}
\contentsline {section}{\numberline {3.29}Secure\discretionary {\unhbox \voidb@x \hbox {\relax \fontsize {7}{8}\selectfont $\leftarrow \joinrel \rhook $}}{}{}Packet\discretionary {\unhbox \voidb@x \hbox {\relax \fontsize {7}{8}\selectfont $\leftarrow \joinrel \rhook $}}{}{}Data Union Reference}{17}{section.3.29}
\contentsline {section}{\numberline {3.30}Simulated\discretionary {\unhbox \voidb@x \hbox {\relax \fontsize {7}{8}\selectfont $\leftarrow \joinrel \rhook $}}{}{}Crypto Class Reference}{18}{section.3.30}
\contentsline {section}{\numberline {3.31}Simulation Class Reference}{18}{section.3.31}
\contentsline {subsection}{\numberline {3.31.1}Detailed Description}{18}{subsection.3.31.1}
\contentsline {section}{\numberline {3.32}Terminal Class Reference}{19}{section.3.32}
\contentsline {subsection}{\numberline {3.32.1}Detailed Description}{19}{subsection.3.32.1}
\contentsline {section}{\numberline {3.33}Test\discretionary {\unhbox \voidb@x \hbox {\relax \fontsize {7}{8}\selectfont $\leftarrow \joinrel \rhook $}}{}{}Simulation Class Reference}{19}{section.3.33}
\contentsline {section}{\numberline {3.34}View\discretionary {\unhbox \voidb@x \hbox {\relax \fontsize {7}{8}\selectfont $\leftarrow \joinrel \rhook $}}{}{}Component Class Reference}{19}{section.3.34}
\contentsline {section}{\numberline {3.35}X\discretionary {\unhbox \voidb@x \hbox {\relax \fontsize {7}{8}\selectfont $\leftarrow \joinrel \rhook $}}{}{}M\discretionary {\unhbox \voidb@x \hbox {\relax \fontsize {7}{8}\selectfont $\leftarrow \joinrel \rhook $}}{}{}L\discretionary {\unhbox \voidb@x \hbox {\relax \fontsize {7}{8}\selectfont $\leftarrow \joinrel \rhook $}}{}{}Protocol Class Reference}{20}{section.3.35}
\contentsline {section}{\numberline {3.36}X\discretionary {\unhbox \voidb@x \hbox {\relax \fontsize {7}{8}\selectfont $\leftarrow \joinrel \rhook $}}{}{}M\discretionary {\unhbox \voidb@x \hbox {\relax \fontsize {7}{8}\selectfont $\leftarrow \joinrel \rhook $}}{}{}L\discretionary {\unhbox \voidb@x \hbox {\relax \fontsize {7}{8}\selectfont $\leftarrow \joinrel \rhook $}}{}{}Simulation Class Reference}{20}{section.3.36}
\contentsline {chapter}{Index}{21}{section*.51}
