\contentsline {section}{\numberline {1}ECU.cpp}{2}
\contentsline {section}{\numberline {2}Bus.h}{3}
\contentsline {section}{\numberline {3}Packet.cpp}{4}
\contentsline {section}{\numberline {4}Crypto.h}{6}
\contentsline {section}{\numberline {5}Bus.cpp}{7}
\contentsline {section}{\numberline {6}Crypto.cpp}{9}
\contentsline {section}{\numberline {7}Simulation.h}{10}
\contentsline {section}{\numberline {8}Simulation.cpp}{11}
\contentsline {section}{\numberline {9}ECU.h}{12}
\contentsline {section}{\numberline {10}Protocol.cpp}{13}
\contentsline {section}{\numberline {11}main.cpp}{17}
\contentsline {section}{\numberline {12}Protocol.h}{19}
\contentsline {section}{\numberline {13}Packet.h}{22}
