\relax 
\providecommand \oddpage@label [2]{}
\@writefile{toc}{\contentsline {section}{\numberline {1}ECU.cpp}{2}}
\@writefile{lol}{\contentsline {lstlisting}{../simulator/code/src/ECU.cpp}{2}}
\@writefile{toc}{\contentsline {section}{\numberline {2}Bus.h}{3}}
\@writefile{lol}{\contentsline {lstlisting}{../simulator/code/src/Bus.h}{3}}
\@writefile{toc}{\contentsline {section}{\numberline {3}Packet.cpp}{4}}
\@writefile{lol}{\contentsline {lstlisting}{../simulator/code/src/Packet.cpp}{4}}
\@writefile{toc}{\contentsline {section}{\numberline {4}Crypto.h}{6}}
\@writefile{lol}{\contentsline {lstlisting}{../simulator/code/src/Crypto.h}{6}}
\@writefile{toc}{\contentsline {section}{\numberline {5}Bus.cpp}{7}}
\@writefile{lol}{\contentsline {lstlisting}{../simulator/code/src/Bus.cpp}{7}}
\@writefile{toc}{\contentsline {section}{\numberline {6}Crypto.cpp}{9}}
\@writefile{lol}{\contentsline {lstlisting}{../simulator/code/src/Crypto.cpp}{9}}
\@writefile{toc}{\contentsline {section}{\numberline {7}Simulation.h}{10}}
\@writefile{lol}{\contentsline {lstlisting}{../simulator/code/src/Simulation.h}{10}}
\@writefile{toc}{\contentsline {section}{\numberline {8}Simulation.cpp}{11}}
\@writefile{lol}{\contentsline {lstlisting}{../simulator/code/src/Simulation.cpp}{11}}
\@writefile{toc}{\contentsline {section}{\numberline {9}ECU.h}{12}}
\@writefile{lol}{\contentsline {lstlisting}{../simulator/code/src/ECU.h}{12}}
\@writefile{toc}{\contentsline {section}{\numberline {10}Protocol.cpp}{13}}
\@writefile{lol}{\contentsline {lstlisting}{../simulator/code/src/Protocol.cpp}{13}}
\@writefile{toc}{\contentsline {section}{\numberline {11}main.cpp}{17}}
\@writefile{lol}{\contentsline {lstlisting}{../simulator/code/src/main.cpp}{17}}
\@writefile{toc}{\contentsline {section}{\numberline {12}Protocol.h}{19}}
\@writefile{lol}{\contentsline {lstlisting}{../simulator/code/src/Protocol.h}{19}}
\@writefile{toc}{\contentsline {section}{\numberline {13}Packet.h}{22}}
\@writefile{lol}{\contentsline {lstlisting}{../simulator/code/src/Packet.h}{22}}
