\relax 
\providecommand\hyper@newdestlabel[2]{}
\providecommand\HyperFirstAtBeginDocument{\AtBeginDocument}
\HyperFirstAtBeginDocument{\ifx\hyper@anchor\@undefined
\global\let\oldcontentsline\contentsline
\gdef\contentsline#1#2#3#4{\oldcontentsline{#1}{#2}{#3}}
\global\let\oldnewlabel\newlabel
\gdef\newlabel#1#2{\newlabelxx{#1}#2}
\gdef\newlabelxx#1#2#3#4#5#6{\oldnewlabel{#1}{{#2}{#3}}}
\AtEndDocument{\ifx\hyper@anchor\@undefined
\let\contentsline\oldcontentsline
\let\newlabel\oldnewlabel
\fi}
\fi}
\global\let\hyper@last\relax 
\gdef\HyperFirstAtBeginDocument#1{#1}
\providecommand\HyField@AuxAddToFields[1]{}
\providecommand\HyField@AuxAddToCoFields[2]{}
\providecommand \oddpage@label [2]{}
\citation{iso11898}
\citation{iso11898}
\@writefile{toc}{\contentsline {section}{\numberline {1}Introduction}{2}{section.1}}
\citation{rafaeli2003survey}
\citation{seetha2015survey}
\citation{rafaeli2003survey}
\citation{gong1993variations}
\citation{gong1993variations}
\citation{ziermann2009can+}
\citation{van2011canauth}
\citation{groza2012libra}
\citation{perrig2005tesla}
\@writefile{toc}{\contentsline {section}{\numberline {2}Related Work}{3}{section.2}}
\newlabel{sec-related-work}{{2}{3}{Related Work}{section.2}{}}
\citation{rufino2003node}
\@writefile{toc}{\contentsline {section}{\numberline {3}CAN Bus}{4}{section.3}}
\@writefile{toc}{\contentsline {subsection}{\numberline {3.1}Standards}{4}{subsection.3.1}}
\@writefile{toc}{\contentsline {subsection}{\numberline {3.2}Startup}{4}{subsection.3.2}}
\@writefile{toc}{\contentsline {subsection}{\numberline {3.3}Data Transmission Mechanisms}{4}{subsection.3.3}}
\citation{bernstein2006curve25519}
\@writefile{toc}{\contentsline {section}{\numberline {4}Adversary Model}{5}{section.4}}
\@writefile{toc}{\contentsline {subsection}{\numberline {4.1}Replay Attack}{5}{subsection.4.1}}
\@writefile{toc}{\contentsline {subsection}{\numberline {4.2}Session Key Theft}{5}{subsection.4.2}}
\@writefile{toc}{\contentsline {section}{\numberline {5}Cryptography}{5}{section.5}}
\newlabel{sec-crypto}{{5}{5}{Cryptography}{section.5}{}}
\@writefile{toc}{\contentsline {subsection}{\numberline {5.1}AES-128}{5}{subsection.5.1}}
\@writefile{toc}{\contentsline {subsection}{\numberline {5.2}CURVE25519}{5}{subsection.5.2}}
\@writefile{toc}{\contentsline {subsection}{\numberline {5.3}X.509}{5}{subsection.5.3}}
\@writefile{lof}{\contentsline {figure}{\numberline {1}{\ignorespaces  Application software on each node stores a freshness counter, message data, and session key. The counter value is appended to the message data; a keyed hash is applied to this value using the session key. The resultant $16$ byte message is placed into a hardware queue. The node's transceiver will attempt to send the message until it is successful. }}{6}{figure.1}}
\newlabel{fig-message-transmission}{{1}{6}{Application software on each node stores a freshness counter, message data, and session key. The counter value is appended to the message data; a keyed hash is applied to this value using the session key. The resultant $16$ byte message is placed into a hardware queue. The node's transceiver will attempt to send the message until it is successful}{figure.1}{}}
\@writefile{toc}{\contentsline {section}{\numberline {6}Challenges}{6}{section.6}}
\newlabel{sec-challenges}{{6}{6}{Challenges}{section.6}{}}
\@writefile{toc}{\contentsline {subsection}{\numberline {6.1}Key Establishment}{6}{subsection.6.1}}
\@writefile{toc}{\contentsline {subsection}{\numberline {6.2}Freshness Synchronization}{6}{subsection.6.2}}
\@writefile{toc}{\contentsline {section}{\numberline {7}Renegotiation Scenarios}{6}{section.7}}
\newlabel{sec-renegotiation-scenario-detection}{{7}{6}{Renegotiation Scenarios}{section.7}{}}
\@writefile{toc}{\contentsline {subsection}{\numberline {7.1}Network Power Up}{7}{subsection.7.1}}
\newlabel{sec-network-power-up}{{7.1}{7}{Network Power Up}{subsection.7.1}{}}
\@writefile{toc}{\contentsline {subsection}{\numberline {7.2}Secure Channel Membership Change}{7}{subsection.7.2}}
\newlabel{sec-secure-channel-membership-change}{{7.2}{7}{Secure Channel Membership Change}{subsection.7.2}{}}
\@writefile{toc}{\contentsline {subsection}{\numberline {7.3}Node Freshness Out-of-Sync}{7}{subsection.7.3}}
\newlabel{sec-node-freshness-out-of-sync}{{7.3}{7}{Node Freshness Out-of-Sync}{subsection.7.3}{}}
\@writefile{toc}{\contentsline {subsection}{\numberline {7.4}Master Node Replaced}{7}{subsection.7.4}}
\newlabel{sec-master-node-replaced}{{7.4}{7}{Master Node Replaced}{subsection.7.4}{}}
\@writefile{toc}{\contentsline {subsection}{\numberline {7.5}Other Key Renegotiation Scenarios}{7}{subsection.7.5}}
\newlabel{sec-other-key-renegotiation-scenarios}{{7.5}{7}{Other Key Renegotiation Scenarios}{subsection.7.5}{}}
\@writefile{toc}{\contentsline {section}{\numberline {8}Detection Mechanisms}{7}{section.8}}
\newlabel{sec-detection-mechanisms}{{8}{7}{Detection Mechanisms}{section.8}{}}
\@writefile{toc}{\contentsline {subsection}{\numberline {8.1}Network Power Up}{7}{subsection.8.1}}
\newlabel{sec-detect-network-power-up}{{8.1}{7}{Network Power Up}{subsection.8.1}{}}
\citation{rufino2003node}
\@writefile{toc}{\contentsline {subsection}{\numberline {8.2}Freshness Out-of-Sync}{8}{subsection.8.2}}
\newlabel{sec-detect-self-out-of-sync}{{8.2}{8}{Freshness Out-of-Sync}{subsection.8.2}{}}
\@writefile{toc}{\contentsline {subsection}{\numberline {8.3}100 Operational Hours}{8}{subsection.8.3}}
\newlabel{sec-detect-operation-hours}{{8.3}{8}{100 Operational Hours}{subsection.8.3}{}}
\@writefile{toc}{\contentsline {subsection}{\numberline {8.4}Heartbeat Membership Detection}{8}{subsection.8.4}}
\newlabel{sec-detect-heartbeat-membership-detection}{{8.4}{8}{Heartbeat Membership Detection}{subsection.8.4}{}}
\@writefile{toc}{\contentsline {subsection}{\numberline {8.5}Relink}{8}{subsection.8.5}}
\newlabel{sec-detect-relink}{{8.5}{8}{Relink}{subsection.8.5}{}}
\@writefile{toc}{\contentsline {subsection}{\numberline {8.6}Missing Key Distribution}{8}{subsection.8.6}}
\newlabel{sec-detect-missing-key-distribution}{{8.6}{8}{Missing Key Distribution}{subsection.8.6}{}}
\@writefile{toc}{\contentsline {section}{\numberline {9}Messages}{9}{section.9}}
\newlabel{sec-frame-format}{{9}{9}{Messages}{section.9}{}}
\@writefile{toc}{\contentsline {subsection}{\numberline {9.1}Using Session Key and Freshness}{9}{subsection.9.1}}
\@writefile{toc}{\contentsline {subsection}{\numberline {9.2}Message Fields}{9}{subsection.9.2}}
\@writefile{lot}{\contentsline {table}{\numberline {1}{\ignorespaces  Messages. }}{10}{table.1}}
\newlabel{fig-state-message}{{1}{10}{Messages}{table.1}{}}
\@writefile{toc}{\contentsline {section}{\numberline {10}Message Exchanges}{11}{section.10}}
\newlabel{sec-message-exchanges}{{10}{11}{Message Exchanges}{section.10}{}}
\@writefile{toc}{\contentsline {subsection}{\numberline {10.1}Key Negotiation}{11}{subsection.10.1}}
\newlabel{sec-individual-join-request}{{10.1}{11}{Key Negotiation}{subsection.10.1}{}}
\newlabel{sec-request-node-join}{{10.1}{11}{Key Negotiation}{subsection.10.1}{}}
\@writefile{toc}{\contentsline {subsubsection}{\numberline {10.1.1}Centralized}{11}{subsubsection.10.1.1}}
\@writefile{lot}{\contentsline {table}{\numberline {2}{\ignorespaces Message Exchange Functions}}{12}{table.2}}
\newlabel{tab-exchange-functions}{{2}{12}{Message Exchange Functions}{table.2}{}}
\@writefile{toc}{\contentsline {subsubsection}{\numberline {10.1.2}Distributed}{14}{subsubsection.10.1.2}}
\@writefile{toc}{\contentsline {subsection}{\numberline {10.2}Freshness Synchronization}{16}{subsection.10.2}}
\newlabel{sec-exchange-freshness-synchronization}{{10.2}{16}{Freshness Synchronization}{subsection.10.2}{}}
\@writefile{toc}{\contentsline {subsection}{\numberline {10.3}Data}{17}{subsection.10.3}}
\newlabel{sec-exchange-data}{{10.3}{17}{Data}{subsection.10.3}{}}
\@writefile{toc}{\contentsline {subsection}{\numberline {10.4}Request Key}{18}{subsection.10.4}}
\newlabel{sec-exchange-request-key}{{10.4}{18}{Request Key}{subsection.10.4}{}}
\@writefile{toc}{\contentsline {subsubsection}{\numberline {10.4.1}Centralized}{18}{subsubsection.10.4.1}}
\@writefile{toc}{\contentsline {subsubsection}{\numberline {10.4.2}Distributed}{19}{subsubsection.10.4.2}}
\@writefile{toc}{\contentsline {subsection}{\numberline {10.5}Relink}{19}{subsection.10.5}}
\newlabel{sec-exchange-relink}{{10.5}{19}{Relink}{subsection.10.5}{}}
\@writefile{toc}{\contentsline {subsection}{\numberline {10.6}Heartbeat}{20}{subsection.10.6}}
\@writefile{toc}{\contentsline {subsubsection}{\numberline {10.6.1}Centralized}{20}{subsubsection.10.6.1}}
\@writefile{toc}{\contentsline {subsubsection}{\numberline {10.6.2}Distributed}{21}{subsubsection.10.6.2}}
\@writefile{toc}{\contentsline {section}{\numberline {11}Protocol Summary}{21}{section.11}}
\newlabel{sec-protocols}{{11}{21}{Protocol Summary}{section.11}{}}
\newlabel{centralized-protocol}{{11}{21}{Protocol Summary}{section.11}{}}
\newlabel{distributed-protocol}{{11}{21}{Protocol Summary}{section.11}{}}
\@writefile{toc}{\contentsline {subsection}{\numberline {11.1}Centralized Protocol}{21}{subsection.11.1}}
\@writefile{lot}{\contentsline {table}{\numberline {3}{\ignorespaces Centralized Protocol}}{21}{table.3}}
\newlabel{tab-centralized}{{3}{21}{Centralized Protocol}{table.3}{}}
\@writefile{toc}{\contentsline {subsubsection}{\numberline {11.1.1}Key Distribution}{22}{subsubsection.11.1.1}}
\@writefile{toc}{\contentsline {subsubsection}{\numberline {11.1.2}Freshness Synchronization}{22}{subsubsection.11.1.2}}
\@writefile{toc}{\contentsline {subsubsection}{\numberline {11.1.3}Other Scenarios}{22}{subsubsection.11.1.3}}
\@writefile{toc}{\contentsline {subsection}{\numberline {11.2}Distributed Protocol}{22}{subsection.11.2}}
\newlabel{tab-null}{{11.2}{22}{Distributed Protocol}{figure.4}{}}
\@writefile{lot}{\contentsline {table}{\numberline {4}{\ignorespaces Distributed Protocol}}{22}{table.4}}
\newlabel{tab-distributed}{{4}{22}{Distributed Protocol}{table.4}{}}
\@writefile{toc}{\contentsline {subsubsection}{\numberline {11.2.1}Secure Channel Chain}{23}{subsubsection.11.2.1}}
\newlabel{sec-secure-channel-chain}{{11.2.1}{23}{Secure Channel Chain}{subsubsection.11.2.1}{}}
\@writefile{toc}{\contentsline {subsubsection}{\numberline {11.2.2}Key Distribution}{23}{subsubsection.11.2.2}}
\@writefile{toc}{\contentsline {subsubsection}{\numberline {11.2.3}Freshness Synchronization}{23}{subsubsection.11.2.3}}
\@writefile{toc}{\contentsline {subsubsection}{\numberline {11.2.4}Other Scenarios}{23}{subsubsection.11.2.4}}
\@writefile{toc}{\contentsline {section}{\numberline {12}Simulation}{24}{section.12}}
\@writefile{toc}{\contentsline {subsection}{\numberline {12.1}SocketCAN}{24}{subsection.12.1}}
\@writefile{toc}{\contentsline {subsection}{\numberline {12.2}Simulations}{24}{subsection.12.2}}
\@writefile{toc}{\contentsline {section}{\numberline {13}Conclusion}{24}{section.13}}
\@writefile{toc}{\contentsline {section}{\numberline {14}Results}{24}{section.14}}
\newlabel{results}{{14}{24}{Results}{section.14}{}}
\@writefile{toc}{\contentsline {subsection}{\numberline {14.1}Protocol Correctness}{24}{subsection.14.1}}
\@writefile{toc}{\contentsline {subsubsection}{\numberline {14.1.1}Detection Mechanisms}{24}{subsubsection.14.1.1}}
\newlabel{tab-null}{{14.1}{25}{Protocol Correctness}{subsection.14.1}{}}
\@writefile{lot}{\contentsline {table}{\numberline {5}{\ignorespaces Protocol correctness simulation results.}}{25}{table.5}}
\newlabel{tab-null}{{14.2}{25}{Bandwidth Utilization}{figure.6}{}}
\@writefile{lot}{\contentsline {table}{\numberline {6}{\ignorespaces  Average protocol bandwidth utilization. Measurements are for the entire bus operation lifetime. }}{25}{table.6}}
\@writefile{toc}{\contentsline {subsubsection}{\numberline {14.1.2}Message Exchange Correctness}{25}{subsubsection.14.1.2}}
\@writefile{toc}{\contentsline {subsubsection}{\numberline {14.1.3}Message Exchange Security}{25}{subsubsection.14.1.3}}
\@writefile{toc}{\contentsline {subsubsection}{\numberline {14.1.4}Simulations}{25}{subsubsection.14.1.4}}
\@writefile{toc}{\contentsline {subsection}{\numberline {14.2}Bandwidth Utilization}{25}{subsection.14.2}}
\@writefile{toc}{\contentsline {subsection}{\numberline {14.3}Traffic Burst}{25}{subsection.14.3}}
\newlabel{tab-null}{{14.3}{25}{Traffic Burst}{subsection.14.3}{}}
\@writefile{lot}{\contentsline {table}{\numberline {7}{\ignorespaces  Maximum protocol bandwidth utilization for a time window size. Measurements are for any time window {\bf  throughout the bus operation lifetime}. }}{25}{table.7}}
\newlabel{tab-null}{{14.3}{25}{Traffic Burst}{table.7}{}}
\@writefile{lot}{\contentsline {table}{\numberline {8}{\ignorespaces  Maximum protocol bandwidth utilization for a time window size. Measurements are for any time window {\bf  after initial session key negotiation}. }}{25}{table.8}}
\@writefile{toc}{\contentsline {subsection}{\numberline {14.4}Practicality}{25}{subsection.14.4}}
\@writefile{toc}{\contentsline {subsection}{\numberline {14.5}Attack Resistance}{25}{subsection.14.5}}
\newlabel{attack-resistance}{{14.5}{25}{Attack Resistance}{subsection.14.5}{}}
\bibdata{bib}
\bibcite{iso11898}{1}
\bibcite{rafaeli2003survey}{2}
\bibcite{seetha2015survey}{3}
\bibcite{gong1993variations}{4}
\bibcite{ziermann2009can+}{5}
\bibcite{van2011canauth}{6}
\bibcite{groza2012libra}{7}
\bibcite{perrig2005tesla}{8}
\bibcite{rufino2003node}{9}
\bibcite{bernstein2006curve25519}{10}
\bibstyle{unsrt}
\@writefile{toc}{\contentsline {subsubsection}{\numberline {14.5.1}Replay Attack}{26}{subsubsection.14.5.1}}
\@writefile{toc}{\contentsline {subsubsection}{\numberline {14.5.2}Session Key Theft}{26}{subsubsection.14.5.2}}
\@writefile{toc}{\contentsline {section}{\numberline {15}Conclusion}{26}{section.15}}
\newlabel{tab-tradeoff}{{15}{27}{Conclusion}{section.15}{}}
\@writefile{lot}{\contentsline {table}{\numberline {9}{\ignorespaces  Comparison of key protocol features. }}{27}{table.9}}
\@writefile{lof}{\contentsline {figure}{\numberline {2}{\ignorespaces  Depicts message data formats used by \nameref  {sec-message-exchanges}, Section\nobreakspace  {}\ref  {sec-message-exchanges}. $\delimiter "026B30D $ is append. $m=$ message data. $C_i=$ freshness counter for node $i$. $S_n=$ session key. $SA=$ node source address. $e_n=$ CURVE25519 public key. $d_n=$ CURVE25519 private key. $LSB(C_i)$ is the $4$ least significant bytes of $C_i$. $H(m \delimiter "026B30D  C_i \delimiter "026B30D  SA,S_n)$ is AES-CMAC keyed hash function hashing message $m \delimiter "026B30D  C_i \delimiter "026B30D  SA$ with key $S_n$. DATA messages contain $LSB(H(m \delimiter "026B30D  C_i \delimiter "026B30D  SA, S_n))$. $SA=$ source address. The CERTIFICATE message exceedes $16$ bytes; it uses CAN Broadcast Announce Message (BAM). }}{28}{figure.2}}
\newlabel{fig-protocol-frame}{{2}{28}{Depicts message data formats used by \nameref {sec-message-exchanges}, Section~\ref {sec-message-exchanges}. $\|$ is append. $m=$ message data. $C_i=$ freshness counter for node $i$. $S_n=$ session key. $SA=$ node source address. $e_n=$ CURVE25519 public key. $d_n=$ CURVE25519 private key. $LSB(C_i)$ is the $4$ least significant bytes of $C_i$. $H(m \| C_i \| SA,S_n)$ is AES-CMAC keyed hash function hashing message $m \| C_i \| SA$ with key $S_n$. DATA messages contain $LSB(H(m \| C_i \| SA, S_n))$. $SA=$ source address. The CERTIFICATE message exceedes $16$ bytes; it uses CAN Broadcast Announce Message (BAM)}{figure.2}{}}
\@writefile{lof}{\contentsline {figure}{\numberline {3}{\ignorespaces  A master node distributes a KEY message to all other nodes. KEY is encrypted for each node with a shared secret established by the CERTIFICATE exchange. }}{28}{figure.3}}
\newlabel{fig-centralized}{{3}{28}{A master node distributes a KEY message to all other nodes. KEY is encrypted for each node with a shared secret established by the CERTIFICATE exchange}{figure.3}{}}
\@writefile{lof}{\contentsline {figure}{\numberline {4}{\ignorespaces  The last joining node generates KEY and begins propagating it. Each node decrypts and re-encrypts KEY using a shared secret with its neighbor. This secret is generated through the CERTIFICATE exchange. Two ACTIVATE\_KEY messages initiate the new secure channel. Node 0 transmits ACTIVATE\_KEY upon receiving KEY. Node 7 transmits ACTIVATE\_KEY in response. }}{28}{figure.4}}
\newlabel{fig-distributed}{{4}{28}{The last joining node generates KEY and begins propagating it. Each node decrypts and re-encrypts KEY using a shared secret with its neighbor. This secret is generated through the CERTIFICATE exchange. Two ACTIVATE\_KEY messages initiate the new secure channel. Node 0 transmits ACTIVATE\_KEY upon receiving KEY. Node 7 transmits ACTIVATE\_KEY in response}{figure.4}{}}
\@writefile{lof}{\contentsline {figure}{\numberline {5}{\ignorespaces  Initiator recognizes a session key renegotiation condition; it sends the initial JOIN\_ASK. Joined Node completes the CERTIFICATE exchange with Initiator; they share a CURVE25519 secret. Upon joining, the Joined Node (1) becomes the previous node's neighbor, (2) sends JOIN\_ASK. This process continues until all nodes are joined. No response to JOIN\_ASK completes the process. }}{28}{figure.5}}
\newlabel{fig-scc}{{5}{28}{Initiator recognizes a session key renegotiation condition; it sends the initial JOIN\_ASK. Joined Node completes the CERTIFICATE exchange with Initiator; they share a CURVE25519 secret. Upon joining, the Joined Node (1) becomes the previous node's neighbor, (2) sends JOIN\_ASK. This process continues until all nodes are joined. No response to JOIN\_ASK completes the process}{figure.5}{}}
\newlabel{fig-null}{{14.2}{29}{Bandwidth Utilization}{subsection.14.2}{}}
\@writefile{lof}{\contentsline {figure}{\numberline {6}{\ignorespaces  x: time. y: protocol bus utilization. Protocol bandwidth utilization over lifetime of bus operations. }}{29}{figure.6}}
\newlabel{fig-null}{{14.4}{29}{Practicality}{subsection.14.4}{}}
\@writefile{lof}{\contentsline {figure}{\numberline {7}{\ignorespaces  x: background bus utilization. y: protocol bus utilization. }}{29}{figure.7}}
\newlabel{fig-null}{{14.5}{29}{Attack Resistance}{subsection.14.5}{}}
\@writefile{lof}{\contentsline {figure}{\numberline {8}{\ignorespaces }}{29}{figure.8}}
