\relax 
\providecommand\hyper@newdestlabel[2]{}
\providecommand\HyperFirstAtBeginDocument{\AtBeginDocument}
\HyperFirstAtBeginDocument{\ifx\hyper@anchor\@undefined
\global\let\oldcontentsline\contentsline
\gdef\contentsline#1#2#3#4{\oldcontentsline{#1}{#2}{#3}}
\global\let\oldnewlabel\newlabel
\gdef\newlabel#1#2{\newlabelxx{#1}#2}
\gdef\newlabelxx#1#2#3#4#5#6{\oldnewlabel{#1}{{#2}{#3}}}
\AtEndDocument{\ifx\hyper@anchor\@undefined
\let\contentsline\oldcontentsline
\let\newlabel\oldnewlabel
\fi}
\fi}
\global\let\hyper@last\relax 
\gdef\HyperFirstAtBeginDocument#1{#1}
\providecommand\HyField@AuxAddToFields[1]{}
\providecommand\HyField@AuxAddToCoFields[2]{}
\providecommand \oddpage@label [2]{}
\citation{iso11898}
\citation{iso11898}
\citation{rafaeli2003survey}
\citation{seetha2015survey}
\citation{rafaeli2003survey}
\@writefile{toc}{\contentsline {section}{\numberline {1}Introduction}{3}{section.0.1}}
\@writefile{toc}{\contentsline {section}{\numberline {2}Related Work}{3}{section.0.2}}
\newlabel{sec-related-work}{{2}{3}{Related Work}{section.0.2}{}}
\citation{gong1993variations}
\citation{gong1993variations}
\citation{ziermann2009can+}
\citation{van2011canauth}
\citation{groza2012libra}
\citation{perrig2005tesla}
\citation{rufino2003node}
\@writefile{toc}{\contentsline {section}{\numberline {3}CAN Bus}{4}{section.0.3}}
\@writefile{toc}{\contentsline {subsection}{\numberline {3.1}Standards}{5}{subsection.0.3.1}}
\@writefile{toc}{\contentsline {subsection}{\numberline {3.2}Startup}{5}{subsection.0.3.2}}
\@writefile{toc}{\contentsline {subsection}{\numberline {3.3}Data Transmission Mechanisms}{5}{subsection.0.3.3}}
\@writefile{toc}{\contentsline {section}{\numberline {4}Adversary Model}{5}{section.0.4}}
\@writefile{toc}{\contentsline {subsection}{\numberline {4.1}Replay Attack}{5}{subsection.0.4.1}}
\citation{bernstein2006curve25519}
\@writefile{toc}{\contentsline {subsection}{\numberline {4.2}Session Key Theft}{6}{subsection.0.4.2}}
\@writefile{toc}{\contentsline {section}{\numberline {5}Cryptography}{6}{section.0.5}}
\newlabel{sec-crypto}{{5}{6}{Cryptography}{section.0.5}{}}
\@writefile{toc}{\contentsline {subsection}{\numberline {5.1}AES-128}{6}{subsection.0.5.1}}
\@writefile{toc}{\contentsline {subsection}{\numberline {5.2}CURVE25519}{6}{subsection.0.5.2}}
\@writefile{toc}{\contentsline {subsection}{\numberline {5.3}X.509}{6}{subsection.0.5.3}}
\@writefile{lof}{\contentsline {figure}{\numberline {1}{\ignorespaces  Application software on each node stores a freshness counter, message data, and session key. The counter value is appended to the message data; a keyed hash is applied to this value using the session key. The resultant $16$ byte message is placed into a hardware queue. The node's transceiver will attempt to send the message until it is successful. }}{7}{figure.0.1}}
\newlabel{fig-message-transmission}{{1}{7}{Application software on each node stores a freshness counter, message data, and session key. The counter value is appended to the message data; a keyed hash is applied to this value using the session key. The resultant $16$ byte message is placed into a hardware queue. The node's transceiver will attempt to send the message until it is successful}{figure.0.1}{}}
\@writefile{toc}{\contentsline {section}{\numberline {6}Challenges}{7}{section.0.6}}
\newlabel{sec-challenges}{{6}{7}{Challenges}{section.0.6}{}}
\@writefile{toc}{\contentsline {subsection}{\numberline {6.1}Key Establishment}{7}{subsection.0.6.1}}
\@writefile{toc}{\contentsline {subsection}{\numberline {6.2}Freshness Synchronization}{7}{subsection.0.6.2}}
\@writefile{toc}{\contentsline {section}{\numberline {7}Renegotiation Scenarios}{8}{section.0.7}}
\newlabel{sec-renegotiation-scenario-detection}{{7}{8}{Renegotiation Scenarios}{section.0.7}{}}
\@writefile{toc}{\contentsline {subsection}{\numberline {7.1}Network Power Up}{8}{subsection.0.7.1}}
\newlabel{sec-network-power-up}{{7.1}{8}{Network Power Up}{subsection.0.7.1}{}}
\@writefile{toc}{\contentsline {subsection}{\numberline {7.2}Secure Channel Membership Change}{8}{subsection.0.7.2}}
\newlabel{sec-secure-channel-membership-change}{{7.2}{8}{Secure Channel Membership Change}{subsection.0.7.2}{}}
\@writefile{toc}{\contentsline {subsection}{\numberline {7.3}Node Freshness Out-of-Sync}{8}{subsection.0.7.3}}
\newlabel{sec-node-freshness-out-of-sync}{{7.3}{8}{Node Freshness Out-of-Sync}{subsection.0.7.3}{}}
\@writefile{toc}{\contentsline {subsection}{\numberline {7.4}Master Node Replaced}{9}{subsection.0.7.4}}
\newlabel{sec-master-node-replaced}{{7.4}{9}{Master Node Replaced}{subsection.0.7.4}{}}
\@writefile{toc}{\contentsline {subsection}{\numberline {7.5}Other Key Renegotiation Scenarios}{9}{subsection.0.7.5}}
\newlabel{sec-other-key-renegotiation-scenarios}{{7.5}{9}{Other Key Renegotiation Scenarios}{subsection.0.7.5}{}}
\@writefile{toc}{\contentsline {section}{\numberline {8}Detection Mechanisms}{9}{section.0.8}}
\newlabel{sec-detection-mechanisms}{{8}{9}{Detection Mechanisms}{section.0.8}{}}
\@writefile{toc}{\contentsline {subsection}{\numberline {8.1}Network Power Up}{9}{subsection.0.8.1}}
\newlabel{sec-detect-network-power-up}{{8.1}{9}{Network Power Up}{subsection.0.8.1}{}}
\@writefile{toc}{\contentsline {subsection}{\numberline {8.2}Freshness Out-of-Sync}{9}{subsection.0.8.2}}
\newlabel{sec-detect-self-out-of-sync}{{8.2}{9}{Freshness Out-of-Sync}{subsection.0.8.2}{}}
\citation{rufino2003node}
\@writefile{toc}{\contentsline {subsection}{\numberline {8.3}100 Operational Hours}{10}{subsection.0.8.3}}
\newlabel{sec-detect-operation-hours}{{8.3}{10}{100 Operational Hours}{subsection.0.8.3}{}}
\@writefile{toc}{\contentsline {subsection}{\numberline {8.4}Heartbeat Membership Detection}{10}{subsection.0.8.4}}
\newlabel{sec-detect-heartbeat-membership-detection}{{8.4}{10}{Heartbeat Membership Detection}{subsection.0.8.4}{}}
\@writefile{toc}{\contentsline {subsection}{\numberline {8.5}Relink}{10}{subsection.0.8.5}}
\newlabel{sec-detect-relink}{{8.5}{10}{Relink}{subsection.0.8.5}{}}
\@writefile{toc}{\contentsline {subsection}{\numberline {8.6}Missing Key Distribution}{10}{subsection.0.8.6}}
\newlabel{sec-detect-missing-key-distribution}{{8.6}{10}{Missing Key Distribution}{subsection.0.8.6}{}}
\@writefile{toc}{\contentsline {section}{\numberline {9}Messages}{10}{section.0.9}}
\newlabel{sec-frame-format}{{9}{10}{Messages}{section.0.9}{}}
\@writefile{lof}{\contentsline {figure}{\numberline {2}{\ignorespaces  Depicts message data formats used by \nameref  {sec-message-exchanges}, Section\nobreakspace  {}\ref  {sec-message-exchanges}. $\delimiter "026B30D $ is append. $m=$ message data. $C_i=$ freshness counter for node $i$. $S_n=$ session key. $SA=$ node source address. $e_n=$ CURVE25519 public key. $d_n=$ CURVE25519 private key. $LSB(C_i)$ is the $4$ least significant bytes of $C_i$. $H(m \delimiter "026B30D  C_i \delimiter "026B30D  SA,S_n)$ is AES-CMAC keyed hash function hashing message $m \delimiter "026B30D  C_i \delimiter "026B30D  SA$ with key $S_n$. DATA messages contain $LSB(H(m \delimiter "026B30D  C_i \delimiter "026B30D  SA, S_n))$. $SA=$ source address. The CERTIFICATE message exceedes $16$ bytes; it uses CAN Broadcast Announce Message (BAM). }}{11}{figure.0.2}}
\newlabel{fig-protocol-frame}{{2}{11}{Depicts message data formats used by \nameref {sec-message-exchanges}, Section~\ref {sec-message-exchanges}. $\|$ is append. $m=$ message data. $C_i=$ freshness counter for node $i$. $S_n=$ session key. $SA=$ node source address. $e_n=$ CURVE25519 public key. $d_n=$ CURVE25519 private key. $LSB(C_i)$ is the $4$ least significant bytes of $C_i$. $H(m \| C_i \| SA,S_n)$ is AES-CMAC keyed hash function hashing message $m \| C_i \| SA$ with key $S_n$. DATA messages contain $LSB(H(m \| C_i \| SA, S_n))$. $SA=$ source address. The CERTIFICATE message exceedes $16$ bytes; it uses CAN Broadcast Announce Message (BAM)}{figure.0.2}{}}
\@writefile{toc}{\contentsline {subsection}{\numberline {9.1}Using Session Key and Freshness}{11}{subsection.0.9.1}}
\@writefile{toc}{\contentsline {subsection}{\numberline {9.2}Message Fields}{11}{subsection.0.9.2}}
\@writefile{lot}{\contentsline {table}{\numberline {1}{\ignorespaces  Messages. }}{12}{table.0.1}}
\newlabel{fig-state-message}{{1}{12}{Messages}{table.0.1}{}}
\@writefile{toc}{\contentsline {section}{\numberline {10}Message Exchanges}{14}{section.0.10}}
\newlabel{sec-message-exchanges}{{10}{14}{Message Exchanges}{section.0.10}{}}
\@writefile{lot}{\contentsline {table}{\numberline {2}{\ignorespaces Message Exchange Functions}}{14}{table.0.2}}
\newlabel{tab-exchange-functions}{{2}{14}{Message Exchange Functions}{table.0.2}{}}
\@writefile{toc}{\contentsline {subsection}{\numberline {10.1}Key Negotiation}{14}{subsection.0.10.1}}
\newlabel{sec-individual-join-request}{{10.1}{14}{Key Negotiation}{subsection.0.10.1}{}}
\newlabel{sec-request-node-join}{{10.1}{14}{Key Negotiation}{subsection.0.10.1}{}}
\@writefile{toc}{\contentsline {subsubsection}{Centralized}{14}{section*.2}}
\@writefile{toc}{\contentsline {subsubsection}{Distributed}{17}{section*.3}}
\@writefile{toc}{\contentsline {subsection}{\numberline {10.2}Freshness Synchronization}{21}{subsection.0.10.2}}
\newlabel{sec-exchange-freshness-synchronization}{{10.2}{21}{Freshness Synchronization}{subsection.0.10.2}{}}
\@writefile{toc}{\contentsline {subsection}{\numberline {10.3}Data}{22}{subsection.0.10.3}}
\newlabel{sec-exchange-data}{{10.3}{22}{Data}{subsection.0.10.3}{}}
\@writefile{toc}{\contentsline {subsection}{\numberline {10.4}Request Key}{23}{subsection.0.10.4}}
\newlabel{sec-exchange-request-key}{{10.4}{23}{Request Key}{subsection.0.10.4}{}}
\@writefile{toc}{\contentsline {subsubsection}{Centralized}{23}{section*.4}}
\@writefile{toc}{\contentsline {subsubsection}{Distributed}{24}{section*.5}}
\@writefile{toc}{\contentsline {subsection}{\numberline {10.5}Relink}{25}{subsection.0.10.5}}
\newlabel{sec-exchange-relink}{{10.5}{25}{Relink}{subsection.0.10.5}{}}
\@writefile{toc}{\contentsline {subsection}{\numberline {10.6}Heartbeat}{26}{subsection.0.10.6}}
\@writefile{toc}{\contentsline {subsubsection}{Centralized}{26}{section*.6}}
\@writefile{toc}{\contentsline {subsubsection}{Distributed}{27}{section*.7}}
\@writefile{toc}{\contentsline {section}{\numberline {11}Protocol Summary}{28}{section.0.11}}
\newlabel{sec-protocols}{{11}{28}{Protocol Summary}{section.0.11}{}}
\newlabel{centralized-protocol}{{11}{28}{Protocol Summary}{section.0.11}{}}
\newlabel{distributed-protocol}{{11}{28}{Protocol Summary}{section.0.11}{}}
\@writefile{toc}{\contentsline {subsection}{\numberline {11.1}Centralized Protocol}{28}{subsection.0.11.1}}
\@writefile{lof}{\contentsline {figure}{\numberline {3}{\ignorespaces  A master node distributes a KEY message to all other nodes. KEY is encrypted for each node with a shared secret established by the CERTIFICATE exchange. }}{28}{figure.0.3}}
\newlabel{fig-centralized}{{3}{28}{A master node distributes a KEY message to all other nodes. KEY is encrypted for each node with a shared secret established by the CERTIFICATE exchange}{figure.0.3}{}}
\@writefile{lot}{\contentsline {table}{\numberline {3}{\ignorespaces Centralized Protocol}}{28}{table.0.3}}
\newlabel{tab-centralized}{{3}{28}{Centralized Protocol}{table.0.3}{}}
\@writefile{toc}{\contentsline {subsubsection}{Key Distribution}{29}{section*.8}}
\@writefile{toc}{\contentsline {subsubsection}{Freshness Synchronization}{29}{section*.9}}
\@writefile{toc}{\contentsline {subsubsection}{Other Scenarios}{29}{section*.10}}
\@writefile{toc}{\contentsline {subsection}{\numberline {11.2}Distributed Protocol}{29}{subsection.0.11.2}}
\@writefile{toc}{\contentsline {subsubsection}{Secure Channel Chain}{29}{section*.11}}
\newlabel{sec-secure-channel-chain}{{11.2}{29}{Secure Channel Chain}{section*.11}{}}
\@writefile{lof}{\contentsline {figure}{\numberline {4}{\ignorespaces  The last joining node generates KEY and begins propagating it. Each node decrypts and re-encrypts KEY using a shared secret with its neighbor. This secret is generated through the CERTIFICATE exchange. Two ACTIVATE\_KEY messages initiate the new secure channel. Node 0 transmits ACTIVATE\_KEY upon receiving KEY. Node 7 transmits ACTIVATE\_KEY in response. }}{30}{figure.0.4}}
\newlabel{fig-distributed}{{4}{30}{The last joining node generates KEY and begins propagating it. Each node decrypts and re-encrypts KEY using a shared secret with its neighbor. This secret is generated through the CERTIFICATE exchange. Two ACTIVATE\_KEY messages initiate the new secure channel. Node 0 transmits ACTIVATE\_KEY upon receiving KEY. Node 7 transmits ACTIVATE\_KEY in response}{figure.0.4}{}}
\newlabel{tab-null}{{11.2}{30}{Distributed Protocol}{figure.0.4}{}}
\@writefile{lot}{\contentsline {table}{\numberline {4}{\ignorespaces Distributed Protocol}}{30}{table.0.4}}
\newlabel{tab-distributed}{{4}{30}{Distributed Protocol}{table.0.4}{}}
\@writefile{toc}{\contentsline {subsubsection}{Key Distribution}{30}{section*.12}}
\@writefile{lof}{\contentsline {figure}{\numberline {5}{\ignorespaces  Initiator recognizes a session key renegotiation condition; it sends the initial JOIN\_ASK. Joined Node completes the CERTIFICATE exchange with Initiator; they share a CURVE25519 secret. Upon joining, the Joined Node (1) becomes the previous node's neighbor, (2) sends JOIN\_ASK. This process continues until all nodes are joined. No response to JOIN\_ASK completes the process. }}{31}{figure.0.5}}
\newlabel{fig-scc}{{5}{31}{Initiator recognizes a session key renegotiation condition; it sends the initial JOIN\_ASK. Joined Node completes the CERTIFICATE exchange with Initiator; they share a CURVE25519 secret. Upon joining, the Joined Node (1) becomes the previous node's neighbor, (2) sends JOIN\_ASK. This process continues until all nodes are joined. No response to JOIN\_ASK completes the process}{figure.0.5}{}}
\@writefile{toc}{\contentsline {subsubsection}{Freshness Synchronization}{31}{section*.13}}
\@writefile{toc}{\contentsline {subsubsection}{Other Scenarios}{32}{section*.14}}
\@writefile{toc}{\contentsline {section}{\numberline {12}Simulation}{32}{section.0.12}}
\@writefile{toc}{\contentsline {subsection}{\numberline {12.1}SocketCAN}{32}{subsection.0.12.1}}
\@writefile{toc}{\contentsline {subsection}{\numberline {12.2}Simulations}{32}{subsection.0.12.2}}
\@writefile{toc}{\contentsline {section}{\numberline {13}Conclusion}{32}{section.0.13}}
\bibdata{bib}
\bibcite{iso11898}{1}
\bibcite{rafaeli2003survey}{2}
\bibcite{seetha2015survey}{3}
\bibcite{gong1993variations}{4}
\bibcite{ziermann2009can+}{5}
\bibcite{van2011canauth}{6}
\bibcite{groza2012libra}{7}
\bibcite{perrig2005tesla}{8}
\bibcite{rufino2003node}{9}
\bibcite{bernstein2006curve25519}{10}
\bibstyle{unsrt}
\@writefile{toc}{\contentsline {section}{Appendices}{35}{chapter*.15}}
\@writefile{toc}{\contentsline {section}{\numberline {A}Simulation Code}{35}{section.Alph0.1}}
\newlabel{sec-polling-logic}{{A}{35}{Simulation Code}{section.Alph0.1}{}}
\@writefile{toc}{\contentsline {subsection}{\numberline {A.1}main}{35}{subsection.Alph0.1.1}}
\@writefile{lol}{\contentsline {lstlisting}{../simulator/code/src/main.cpp}{35}{lstlisting.Alph0.-1}}
\@writefile{toc}{\contentsline {subsection}{\numberline {A.2}Simulation}{37}{subsection.Alph0.1.2}}
\@writefile{lol}{\contentsline {lstlisting}{../simulator/code/src/Simulation.cpp}{37}{lstlisting.Alph0.-2}}
\@writefile{toc}{\contentsline {subsection}{\numberline {A.3}Centralized Protocol}{39}{subsection.Alph0.1.3}}
\@writefile{toc}{\contentsline {subsubsection}{Generic}{39}{section*.16}}
\@writefile{lol}{\contentsline {lstlisting}{../simulator/code/src/Protocol.cpp}{39}{lstlisting.Alph0.-3}}
\@writefile{toc}{\contentsline {subsubsection}{Master}{42}{section*.17}}
\@writefile{lol}{\contentsline {lstlisting}{../simulator/code/src/CenteralizedProtocol.cpp}{42}{lstlisting.Alph0.-4}}
\@writefile{toc}{\contentsline {subsection}{\numberline {A.4}Distributed Protocol}{46}{subsection.Alph0.1.4}}
\@writefile{lol}{\contentsline {lstlisting}{../simulator/code/src/DistributedProtocol.cpp}{46}{lstlisting.Alph0.-5}}
