\relax 
\providecommand\hyper@newdestlabel[2]{}
\providecommand\HyperFirstAtBeginDocument{\AtBeginDocument}
\HyperFirstAtBeginDocument{\ifx\hyper@anchor\@undefined
\global\let\oldcontentsline\contentsline
\gdef\contentsline#1#2#3#4{\oldcontentsline{#1}{#2}{#3}}
\global\let\oldnewlabel\newlabel
\gdef\newlabel#1#2{\newlabelxx{#1}#2}
\gdef\newlabelxx#1#2#3#4#5#6{\oldnewlabel{#1}{{#2}{#3}}}
\AtEndDocument{\ifx\hyper@anchor\@undefined
\let\contentsline\oldcontentsline
\let\newlabel\oldnewlabel
\fi}
\fi}
\global\let\hyper@last\relax 
\gdef\HyperFirstAtBeginDocument#1{#1}
\providecommand\HyField@AuxAddToFields[1]{}
\providecommand\HyField@AuxAddToCoFields[2]{}
\providecommand \oddpage@label [2]{}
\@writefile{toc}{\contentsline {section}{\numberline {1}Message Exchanges}{}{section.1}}
\newlabel{sec-message-exchanges}{{1}{}{Message Exchanges}{section.1}{}}
\@writefile{lot}{\contentsline {table}{\numberline {1}{\ignorespaces Message Exchange Functions}}{}{table.1}}
\newlabel{tab-exchange-functions}{{1}{}{Message Exchange Functions}{table.1}{}}
\@writefile{toc}{\contentsline {subsection}{\numberline {1.1}Key Negotiation}{}{subsection.1.1}}
\newlabel{sec-individual-join-request}{{1.1}{}{Key Negotiation}{subsection.1.1}{}}
\newlabel{sec-request-node-join}{{1.1}{}{Key Negotiation}{subsection.1.1}{}}
\@writefile{toc}{\contentsline {subsubsection}{\numberline {1.1.1}Centralized}{}{subsubsection.1.1.1}}
\@writefile{toc}{\contentsline {subsubsection}{\numberline {1.1.2}Distributed}{}{subsubsection.1.1.2}}
\@writefile{toc}{\contentsline {subsection}{\numberline {1.2}Freshness Synchronization}{}{subsection.1.2}}
\newlabel{sec-exchange-freshness-synchronization}{{1.2}{}{Freshness Synchronization}{subsection.1.2}{}}
\@writefile{toc}{\contentsline {subsection}{\numberline {1.3}Data}{}{subsection.1.3}}
\newlabel{sec-exchange-data}{{1.3}{}{Data}{subsection.1.3}{}}
\@writefile{toc}{\contentsline {subsection}{\numberline {1.4}Request Key}{}{subsection.1.4}}
\newlabel{sec-exchange-request-key}{{1.4}{}{Request Key}{subsection.1.4}{}}
\@writefile{toc}{\contentsline {subsubsection}{\numberline {1.4.1}Centralized}{}{subsubsection.1.4.1}}
\@writefile{toc}{\contentsline {subsubsection}{\numberline {1.4.2}Distributed}{}{subsubsection.1.4.2}}
\@writefile{toc}{\contentsline {subsection}{\numberline {1.5}Relink}{}{subsection.1.5}}
\newlabel{sec-exchange-relink}{{1.5}{}{Relink}{subsection.1.5}{}}
\@writefile{toc}{\contentsline {subsection}{\numberline {1.6}Heartbeat}{}{subsection.1.6}}
\@writefile{toc}{\contentsline {subsubsection}{\numberline {1.6.1}Centralized}{}{subsubsection.1.6.1}}
\@writefile{toc}{\contentsline {subsubsection}{\numberline {1.6.2}Distributed}{}{subsubsection.1.6.2}}
\@writefile{toc}{\contentsline {section}{\numberline {2}Protocol Summary}{}{section.2}}
\newlabel{sec-protocols}{{2}{}{Protocol Summary}{section.2}{}}
\newlabel{centralized-protocol}{{2}{}{Protocol Summary}{section.2}{}}
\newlabel{distributed-protocol}{{2}{}{Protocol Summary}{section.2}{}}
\@writefile{toc}{\contentsline {subsection}{\numberline {2.1}Centralized Protocol}{}{subsection.2.1}}
\@writefile{lof}{\contentsline {figure}{\numberline {1}{\ignorespaces  A master node distributes a KEY message to all other nodes. KEY is encrypted for each node with a shared secret established by the CERTIFICATE exchange. }}{}{figure.1}}
\newlabel{fig-centralized}{{1}{}{A master node distributes a KEY message to all other nodes. KEY is encrypted for each node with a shared secret established by the CERTIFICATE exchange}{figure.1}{}}
\@writefile{lot}{\contentsline {table}{\numberline {2}{\ignorespaces Centralized Protocol}}{}{table.2}}
\newlabel{tab-centralized}{{2}{}{Centralized Protocol}{table.2}{}}
\@writefile{toc}{\contentsline {subsubsection}{\numberline {2.1.1}Key Distribution}{}{subsubsection.2.1.1}}
\@writefile{toc}{\contentsline {subsubsection}{\numberline {2.1.2}Freshness Synchronization}{}{subsubsection.2.1.2}}
\@writefile{toc}{\contentsline {subsubsection}{\numberline {2.1.3}Other Scenarios}{}{subsubsection.2.1.3}}
\@writefile{toc}{\contentsline {subsection}{\numberline {2.2}Distributed Protocol}{}{subsection.2.2}}
\newlabel{tab-null}{{2.2}{}{Distributed Protocol}{figure.2}{}}
\@writefile{lot}{\contentsline {table}{\numberline {3}{\ignorespaces Distributed Protocol}}{}{table.3}}
\newlabel{tab-distributed}{{3}{}{Distributed Protocol}{table.3}{}}
\@writefile{lof}{\contentsline {figure}{\numberline {2}{\ignorespaces  The last joining node generates KEY and begins propagating it. Each node decrypts and re-encrypts KEY using a shared secret with its neighbor. This secret is generated through the CERTIFICATE exchange. Two ACTIVATE\_KEY messages initiate the new secure channel. Node 0 transmits ACTIVATE\_KEY upon receiving KEY. Node 7 transmits ACTIVATE\_KEY in response. }}{}{figure.2}}
\newlabel{fig-distributed}{{2}{}{The last joining node generates KEY and begins propagating it. Each node decrypts and re-encrypts KEY using a shared secret with its neighbor. This secret is generated through the CERTIFICATE exchange. Two ACTIVATE\_KEY messages initiate the new secure channel. Node 0 transmits ACTIVATE\_KEY upon receiving KEY. Node 7 transmits ACTIVATE\_KEY in response}{figure.2}{}}
\@writefile{toc}{\contentsline {subsubsection}{\numberline {2.2.1}Secure Channel Chain}{}{subsubsection.2.2.1}}
\newlabel{sec-secure-channel-chain}{{2.2.1}{}{Secure Channel Chain}{subsubsection.2.2.1}{}}
\@writefile{lof}{\contentsline {figure}{\numberline {3}{\ignorespaces  Initiator recognizes a session key renegotiation condition; it sends the initial JOIN\_ASK. Joined Node completes the CERTIFICATE exchange with Initiator; they share a CURVE25519 secret. Upon joining, the Joined Node (1) becomes the previous node's neighbor, (2) sends JOIN\_ASK. This process continues until all nodes are joined. No response to JOIN\_ASK completes the process. }}{}{figure.3}}
\newlabel{fig-scc}{{3}{}{Initiator recognizes a session key renegotiation condition; it sends the initial JOIN\_ASK. Joined Node completes the CERTIFICATE exchange with Initiator; they share a CURVE25519 secret. Upon joining, the Joined Node (1) becomes the previous node's neighbor, (2) sends JOIN\_ASK. This process continues until all nodes are joined. No response to JOIN\_ASK completes the process}{figure.3}{}}
\@writefile{toc}{\contentsline {subsubsection}{\numberline {2.2.2}Key Distribution}{}{subsubsection.2.2.2}}
\@writefile{toc}{\contentsline {subsubsection}{\numberline {2.2.3}Freshness Synchronization}{}{subsubsection.2.2.3}}
\@writefile{toc}{\contentsline {subsubsection}{\numberline {2.2.4}Other Scenarios}{}{subsubsection.2.2.4}}
